VertexLitGeneric
//Created in MjolnirSDK 0.89
{
	"$baseTexture" "z-o-m-b-i-e/STALKER/wood/wood_plank6"
	"$basetexturetransform"	"center 0 0 scale 1 1 rotate 90 translate 0 0"
	"$surfaceprop" "wood"
	"$detail" "z-o-m-b-i-e/STALKER/detail/detail_wood_det2"
	"$detailscale" "6.00"
	"$detailblendfactor" "0.4"
	"$detailblendmode" "0"
}
