VertexLitGeneric
{
$basetexture "models/Prop_Food_kitchen_dining/food_can2"
$surfaceprop metal
$bumpmap "models/Prop_Food_kitchen_dining/food_can_n"
$normalmapalphaenvmapmask 1
$envmap env_cubemap
$envmaptint .6 .6 .6
}