LightmappedGeneric
{
	"$basetexture" "Stone/marblefloor002b"
	"$envmap" "env_cubemap"
	"$surfaceprop" "concrete"
	"%keywords" "c17skyscraper"
	"$bumpmap" "stone/marblefloor002b_normal"
	"$normalmapalphaenvmapmask" 1
	"$envmapcontrast" 1
	"$envmapsaturation" 1
	"$envmaptint" "[ .5 .5 .5]"
}
