LightmappedGeneric
{
	"$basetexture" "Stone/stonewall045h"
	"$surfaceprop" "concrete"
	"$bumpmap" "stone/stonewall045h_normal"
	"%keywords" "c17downtown"
	"$envmap" "env_cubemap"
	"$normalmapalphaenvmapmask" 1
	"$envmapcontrast" 1
	"$envmapsaturation" 1
	"$envmaptint" "[ .5 .5 .5]"
}
