LightmappedGeneric
{
	"$basetexture" "Stone/stonefloor007b"
	"$bumpmap" "stone/stonefloor007b_normal"
	"$surfaceprop" "concrete"
	"$envmap" "env_cubemap"
	"$envmaptint" "[ 0.35 0.35 0.35 ]"
	"%keywords" "c17downtown,wasteland"
}
