LightmappedGeneric
{
	"$basetexture" "Stone/stonewall013d_2023"
	"$surfaceprop" "concrete"
	"%keywords" "c17downtown"

	"$detail" "detail\noise_detail_01"
	"$detailscale" "7.345"
	"$detailblendfactor" .6
	"$detailblendmode" 0
}
