"LightmappedGeneric"
{
	"$baseTexture" "props/cube_metaltrim003a"
	"$surfaceprop" "metal" 
	"$bumpmap" "props/cube_metaltrim003_normal"
	"$selfillum" 1

	%keywords "sgf_cube"

	//"Proxies"
	//{
	//	"Sine"
	//	{
	//		"resultVar"	"$selfillumtint"
	//		"sineperiod"	2
	//		"timeoffset"	8
	//		"sinemin"	1
	//		"sinemax"	2
	//	}
	//}

}