LightmappedGeneric
{
	// Original shader: BaseTimesLightmap
	"$basetexture" "Props/plasticpipe002a_old"
	"$bumpmap" "Props/plasticpipe002a_old_norm"
	"$surfaceprop" "plastic"
	"%keywords" "borealis"
}
