VertexLitGeneric
{
	"$detail" "detail\noise_detail_01"
	"$detailscale" "7.345"
	"$detailblendfactor" .6
	"$detailblendmode" 0

	"$basetexture" "models\props_ol\concrete_wall01_2"
	"$surfaceprop" "concrete"
}
