VertexLitGeneric
{

	"$baseTexture" "models/props_ol\console01"
	"$bumpmap" "models/props_ol\console01_normal"
	"$envmap" "env_cubemap"
	"$normalmapalphaenvmapmask" 1
	"$envmaptint" "[.35 .35 .35]"
	"$surfaceprop" "metal"
}
