LightmappedGeneric
{
	"$basetexture" "Building_Template/Building_Template027o"
	"$surfaceprop" "concrete"

	"$detail" "detail\plaster_detail_01"
	"$detailscale" "8.283"
	"$detailblendfactor" 1.2
	"$detailblendmode" "0"

	"$envmap" "env_cubemap"
	"$basealphaenvmapmask" 1
	"$envmapcontrast" 1
	"$envmapsaturation" 1
	"$envmaptint" "[ .5 .5 .5]"
}
