"VertexLitGeneric"
{
	"$baseTexture" "z-o-m-b-i-e/metro_2033/trees/trees_lians_column"
	"$bumpmap" "z-o-m-b-i-e/metro_2033/trees/trees_lians_column_norm"
	"$surfaceprop" "wood"
	"$detail" "z-o-m-b-i-e/metro_2033/det/det_wood_doski_det2"
	"$detailscale" "9.00"
	"$detailblendfactor" "0.7"
	"$detailblendmode" "0"
}
	