LightmappedGeneric
{
	// Original shader: DecalBaseTimesLightmapAlphaBlend
	"$translucent" 1
	"$basetexture" "Decals/decalconcrete001a"
	"$decal" 1
	"$decalscale" 0.25
	"%keywords" "c17downtown,wasteland"
}
