"LightmappedGeneric"
{
	// Original shader: DecalBaseTimesLightmapAlphaBlend
	"$translucent" 1
	"$basetexture" "Decals/decal_c8graff011"
	"$decal" 1
	"$decalscale" 0.20
		// Texture by Serman.  For use only by Taco N' Banana's City 8 Project.
}
