"LightmappedGeneric"
{
	"$vertexcolor" "1"
	"$vertexalpha" "1"
	// Original shader: DecalBaseTimesLightmapAlphaBlend
	"$translucent" 1
	"$basetexture" "Decals/decal_posters006_add_5"
	"$decal" 1
	"$decalscale" 0.125
	"%keywords" "c17downtown"
}
