"LightmappedGeneric"
{
	// Original shader: DecalBaseTimesLightmapAlphaBlend
// Uncomment this if you add an alpha channel to the base texture
//	"$translucent" 1
	"$basetexture" "decals/decaltilepipe001a"
	"$decal" 1
	"$decalscale" 0.25
	//"%keywords" "Other-Life"
}
