LightmappedGeneric
{
	"$basetexture" "Brick/brickwall015l_2023"
	"$surfaceprop" "brick"
	"%keywords" "c17downtown"

	"$detail" "detail\noise_detail_01"
	"$detailscale" "7.740"
	"$detailblendfactor" .8
	"$detailblendmode" 0

	"$envmap" "env_cubemap"
	"$basealphaenvmapmask" 1
	"$envmapcontrast" 1
	"$envmapsaturation" 1
	"$envmaptint" "[ .75 .75 .75]"
}
