LightmappedGeneric
{
	"$basetexture" "Brick/brickwall025b"
	"$surfaceprop" "brick"
	"%keywords" "c17downtown"
	"$bumpmap" "brick/brickwall025b_normal"
	"$envmap" "env_cubemap"
	"$normalmapalphaenvmapmask" 1
	"$envmapcontrast" 1
	"$envmapsaturation" 1
	"$envmaptint" "[ .5 .5 .5]"
}
