LightmappedGeneric
{
	"$basetexture" "Brick/brickwall016j_2023"
	"$surfaceprop" "brick"
	"%keywords" "c17downtown"

	"$detail" "detail\noise_detail_01"
	"$detailscale" "7.740"
	"$detailblendfactor" .8
	"$detailblendmode" 0
}