LightmappedGeneric
{
$baseTexture "mus\liteline/subway_nonslip_01b_praha"
$bumpmap "metrostroi/subway_nonslip_01a_ssbump"
$ssbump 1
$envmap env_cubemap
$normalmapalphaenvmapmask 1
$envmaptint "[ .05 .05 .05 ]"
$surfaceprop tile
}
