"VertexLitGeneric"
{
	"$basetexture" "Z-O-M-B-I-E/metro_2033/metal34/metal34_armature"
	//"$bumpmap" "Z-O-M-B-I-E/metro_2033/metal34/metal34_armature_norm"
	"$surfaceprop" "metal"
	"$nodecal" "1"
	"$alphatest" "1"
}
