VertexLitGeneric
{
	"$baseTexture" "z-o-m-b-i-e/STALKER/prop/prop_barbwire3"
	//"$uvmap" "z-o-m-b-i-e/STALKER/prop/prop_barbwire3_uv.pypv"
	"$nodecal" "1"
	"$nocull"	"1"
	"$alphatest" "1"
	"$alphatestreference" ".6231"
        $allowalphatocoverage 1
	"$surfaceprop" "metalgrate"
}
