LightmappedGeneric
{
	"$baseTexture" "z-o-m-b-i-e/STALKER/trees/trees_kamish_big_02"
	//"$bumpmap" "z-o-m-b-i-e/STALKER/trees/trees_vetkasux3_norm"
	"$decal" "1" 
	"$nocull" 1
	"$nodecal" "1"
	"$translucent" "1"
}
	
