"VertexlitGeneric"
{
	"$basetexture"					"models\props_se\propper\cmb_window_protector"
	"$bumpmap"	      				"models\props_se\propper\cmb_window_protector_norm"
	
	"$envmap"						"env_cubemap"
	"$envmaptint"					"[.2 .2 .2]"
	"$normalmapalphaenvmapmask"		"1"
	"$envmapsaturation"				"0.8"
}
