"VertexlitGeneric" //gener 2311
{
	"$basetexture" "se_building\type_2/courtyard_template002a"
	"$surfaceprop"  "concrete"
	"$detail" "detail\plaster_detail_01"
	"$detailscale" "8.583"
	"$detailblendfactor" 1.2
	"$detailblendmode" "0"

}
