unlittwotexture
{
$basetexture "snow/monitor/devscreen"
$surfaceprop metal
"%tooltexture" "dev/dev_scanline"
$texture2 "dev/dev_scanline"
$one 1
$zero 0
$temp 0
$texoffset "[0 0]"
$texscale .25
$tex2offset "[0 0]"
$tex2scale 0
$a_b_halfwidth 0.1
$a_b_noise 0
$a_s_halfwidth 0.025
$a_s_noise 0
$a_t_halfwidth 0.00
$a_threshold 0.7
$alpha_bias 0.2

$j_b_halfwidth 2
$j_b_noise 0
$j_s_halfwidth 0.05
$j_s_noise 0
$j_t_halfwidth 0.25
$j_threshold 3
$j_basescale 2

$xo_b_halfwidth 0.035
$xo_b_noise 0
$xo_s_halfwidth 0.001
$xo_s_noise 0
$xo_t_halfwidth 0.0
$xo_threshold 0.1
proxies
{
sine
{
resultvar "$color[0]"
sineperiod 1
sinemin .9
sinemax .9
}
sine
{
resultvar "$color[1]"
sineperiod .01
sinemin .9
sinemax 1
}

gaussiannoise
{
mean $zero
halfwidth $a_b_halfwidth
resultvar $a_b_noise
}
abs
{
srcvar1 $a_b_noise
resultvar $a_b_noise
}
subtract
{
srcvar1 $one
srcvar2 $a_b_noise
resultvar $a_b_noise
}
gaussiannoise
{
mean $zero
halfwidth $a_s_halfwidth
resultvar $a_s_noise
}
abs
{
srcvar1 $a_s_noise
resultvar $a_s_noise
}
subtract
{
srcvar1 $one
srcvar2 $a_s_noise
resultvar $a_s_noise
}
gaussiannoise
{
mean $a_threshold
halfwidth $a_t_halfwidth
resultvar $a_threshold
}
lessorequal
{
srcvar1 $a_b_noise
srcvar2 $a_threshold
lessequalvar $a_b_noise
greatervar $a_s_noise
resultvar $temp
}

gaussiannoise
{
mean $zero
halfwidth $j_b_halfwidth
resultvar $j_b_noise
}
gaussiannoise
{
mean $zero
halfwidth $j_s_halfwidth
resultvar $j_s_noise
}
gaussiannoise
{
mean $j_threshold
halfwidth $j_t_halfwidth
resultvar $j_threshold
}
abs
{
srcvar1 $j_b_noise
resultvar $temp
}
lessorequal
{
srcvar1 $temp
srcvar2 $j_threshold
lessequalvar $j_s_noise
greatervar $j_b_noise
resultvar $temp
}
add
{
srcvar1 $temp
srcvar2 $j_basescale
resultvar $tex2scale
}

linearramp
{
resultvar "$tex2offset[1]"

rate -.55
}
texturetransform
{

translatevar $tex2offset
resultvar $texture2transform
}



