"VertexlitGeneric"
{
	"$basetexture" "models/props_se/propper/factory_tank_1"
	"$envmap" "env_cubemap"
	"$envmapmask" "models/props_se/propper/factory_tank_1_env"
	"$envmaptint" "[.3 .3 .3]"
	"$envmapsaturation" ".2"
}
