"VertexlitGeneric" //gener 2311
{
	"$basetexture" "models/props_se/propper/lab_strus_1"
	"$surfaceprop"  "metal"
	"$detail" "detail\metal_paint_2_detail"
	"$detailscale" "12.0"
	"$detailblendfactor" .8
	"$detailblendmode" "0"
}
