"vertexlitgeneric"
{
	"$basetexture" "se_glass/lightblock01a"
	"$surfaceprop" "glass"
	
	"$nocull" "1"
	
	"$envmap" "env_cubemap"
	"$envmaptint" "[.75 .75 .75]"
	"$normalmapalphaenvmapmask" 1
	"$bumpmap"	      "se_glass/lightblock01_norm"
}
