"vertexlitgeneric"
{
	"$basetexture" "se_glass/lightblock01a"
	"$surfaceprop" "Glass"
		
	"$nocull" "1"
	
	"$selfillum" "1"
	"$selfillumtint" "[.25 .25 .25]"
    //"$selfillummask" "se_glass/lightblock01_illum"
	
	"$envmap" "env_cubemap"
	"$envmaptint" "[.75 .75 .75]"
	"$normalmapalphaenvmapmask" 1
	"$bumpmap"	      "se_glass/lightblock01_norm"
}
