// envmaptint_fix
"VertexlitGeneric" //gener 2311
{
	"$basetexture" "metal/metalroof006a"
	"$surfaceprop" "metal"
	"%keywords" "c17industrial"
	"$envmap" "env_cubemap"
	"$bumpmap" "metal/metalroof006a_normal"
	"$normalmapalphaenvmapmask" 1
	"$envmapcontrast" 1
	"$envmapsaturation" 1
	"$envmaptint" "[ .3 .3 .3 ]"
}
