"VertexlitGeneric"
{
	"$basetexture" "models/props_se/propper/metal_cup_mug_3"
	"$bumpmap" "models/props_se/propper/metal_cup_mug_norm"
	$phong 1
	$phongexponent   40
	$phongboost    2
	$phongfresnelranges  "[0.5 0.5 0.5]"
}
