"vertexlitgeneric"
{
	"$basetexture" "metal/metalpipe001a"
	"$surfaceprop"  "metal"
	"$detail" "detail\metal_detail_01"
	"$detailscale" "4.283"
	"$detailblendfactor" .65
	"$detailblendmode" "0"

	"$bumpmap" "metal/metalpipe003a_normal"
	"%keywords" "c17industrial"
}
