// envmaptint_fix
"vertexlitgeneric"
{
	"$basetexture" "metal/metalwall077a"
	"$surfaceprop"  "metal"
	"$detail" "detail\metal_detail_01"
	"$detailscale" "4.283"
	"$detailblendfactor" .8
	"$detailblendmode" "0"

	"%keywords" "combine"
	"$bumpmap" "metal/metalwall077a_normal"
	"$nodiffusebumplighting" 1
	"$envmaptint" "[ .56 .67 .75 ]"
	"$envmap" "env_cubemap"
	"$normalmapalphaenvmapmask" 1
	"$envmapcontrast" 1
	"$envmapsaturation" 1
}
