// envmaptint_fix
"vertexlitgeneric"
{
	"$basetexture" "metal/metalroof004a"
	"$surfaceprop" "metal"
	"%keywords" "c17industrial"
	"$envmap" "env_cubemap"
	"$bumpmap" "metal/metalroof004a_normal"
	"$normalmapalphaenvmapmask" 1
	"$envmapcontrast" 1
	"$envmapsaturation" 1
	"$envmaptint" "[ .6 .6 .6 ]"
}
