"vertexlitgeneric"
{
	"$basetexture"					"se_building/panel_concrete_wall_6a"
	"$bumpmap"						"se_building/panel_concrete_wall_6a_norm"
	"$surfaceprop"					"tile"
	
	"$envmap"						"env_cubemap"
	"$normalmapalphaenvmapmask"		"1"
	"$envmapcontrast"				"1"
	"$envmapsaturation"				"1"
	"$envmaptint"					"[ .9 .9 .9 ]"
}