"vertexlitgeneric"
{
	"$basetexture" "se_building/panel_concrete_wall_2b"
	"$surfaceprop"  "concrete"
	"$detail" "detail\beton"
	"$detailscale" "2"
	"$detailblendfactor" 1.0
	"$detailblendmode" "0"

}
