
"VertexlitGeneric" //gener 2311
{
	// Original shader: VertexLitTexture
	"$basetexture" "Models/props_se/phys_objects02a"
	"$surfaceprop" "metal"
	"$envmap" "env_cubemap"
	"$basealphaenvmapmask" 1

}

