"VertexlitGeneric"
{
	"$basetexture"						"models/props_se/propper/pipe_big_icicle"
	"$bumpmap"							"models/props_se/propper/pipe_big_icicle_norm"
	
	"$normalmapalphaenvmapmask"			"1"
	"$envmap"							"env_cubemap"
	"$envmaptint"						"[.75 .75 .75]"
}
