"VertexLitGeneric"
{
"$baseTexture" "models/props_se/propper/power_box_2b"
"$envmap" "env_cubemap"
"$envmapmask" "models/props_se/propper/power_box_2_env"
"$detail" "detail\metal_paint_2_detail"
	"$detailscale" "2.00"
	"$detailblendfactor" 1.2
	"$detailblendmode" "0"
}
