"vertexlitgeneric"
{
	"$basetexture" "se_concrete/sde_concrete_plaster_4"
	"$surfaceprop"  "concrete"


	//"$envmap" "env_cubemap"
	//"$basealphaenvmapmask" 1
	//"$envmapcontrast" 1
	//"$envmapsaturation" 1
	//"$envmaptint" "[ .15 .15 .15]"
}
