"VertexlitGeneric"
{
	"$basetexture" "models/props_se/propper/tv_monitor_rubin_a"
	"$bumpmap" "models/props_se/propper/tv_monitor_rubin_a_norm"
	$phong 1
	$phongexponent   20
	$phongboost    2
	//$phongfresnelranges  "[0.5 0.5 0.5]"
	$phongfresnelranges "[.2 .5 2]"
}
