"VertexlitGeneric" //gener 2311
{
	"$basetexture" "models/props_se/propper/wood_door_holder"
	"$detail" "detail\wood_detail_01"
	"$detailscale" "8.283"
	"$detailblendfactor" 1.2
	"$detailblendmode" "0"
}
