"vertexlitGeneric"
{
	"$basetexture"					"models/props_se/propper/wooden_sign_05"
	"$bumpmap"						"models/props_se/propper/wooden_sign_01_norm"
	
	"$phong"						"1"
	"$phongexponent"				"1.2"
	"$phongboost"					"0.07"
	"$phongfresnelranges"			"[1 3 5]"
	"$PhongAlbedoTint"				"1""
}