VertexLitGeneric
{
	"$baseTexture" "models/props_c17/Dome001"
	"$surfaceprop" "metal"
	"$bumpmap" "Models/props_c17/Dome001_normal"
	"$envmap" "env_cubemap"
	"$normalmapalphaenvmapmask" 1
	"$envmapcontrast" 1
	"$envmapsaturation" 1
	"$envmaptint" "[ .5 .5 .5]"
}


