"vertexlitGeneric"
{
	// Original shader: BaseTexture
	"$basetexture" "models/props_c17/door01f_skin5"
	"$surfaceprop" "wood"

	"$detail" "detail\PLASTER_detail_01"
	"$detailscale" "5.545"
	"$detailblendfactor" .7
	"$detailblendmode" 0
}
