"vertexlitgeneric"
{
	"$basetexture" "cable\black"
	"$model" 1
	"$bumpmap" "models/shared/n_flat"
	"$nodecal" 1

	"$phong" "1"
	"$phongexponent" 200
	"$phongboost" "2.5"
	"$phongfresnelranges"	"[0.5 1 3]"
}


