"unlitgeneric"
{
	"$basetexture" "_rt_camera4"
	"$model" 1
	"$selfillum" 1
	"$selfillumtint" 2
	"$bumpmap" "models/shared/n_flat"
	"$nodecal" 1
	
	"Proxies"
	{

		"Sine"
		{
			"resultVar" "$selfillumtint[2]"
			"sineperiod" 1
			"sinemin" 1.2
			"sinemax" 1.5
		}
		"Sine"
		{
			"resultVar" "$selfillumtint[1]"
			"sineperiod" .01
			"sinemin" 1.4
			"sinemax" 1.8
		}
		"Sine"
		{
			"resultVar" "$selfillumtint[3]"
			"sineperiod" .01
			"sinemin" 1.7
			"sinemax" 2
		}
	}

}

