vertexlitgeneric
{
	$basetexture metal/metalwall076a
	$basealphaenvmapmask 1
	//$envmapsphere 1
	//$envmap "environment maps/envmapcombine"
	$surfaceprop metal
	$envmap env_cubemap
	$envmaptint "[ .25 .31 .33 ]"
	$envmapcontrast .4
	$envmapsaturation .66
	$detail detail\concrete_detail_05
	$detailscale 7.345
	$detailblendfactor .6
	$detailblendmode 0
}
