"VertexlitGeneric"
{
	"$basetexture" "models/props_se/pipes/pipe_support_holder"
	"$bumpmap" "models/props_se/pipes/pipe_support_holder_norm"
	
	$phong 1
	$phongexponent   90
	$phongboost    0.2
	$phongfresnelranges  "[0.5 0.5 0.5]"
}
