"LightMappedGeneric"
{
	"$baseTexture" "z-o-m-b-i-e/metro_2033/props/props_dver_big"
	"$bumpmap" "z-o-m-b-i-e/metro_2033/props/props_dver_big_norm"
	"$surfaceprop" "wood"
	"$detail" "z-o-m-b-i-e/metro_2033/det/det_wood_doski_det2"
	"$detailscale" "10.00"
	"$detailblendfactor" "0.8"
	"$detailblendmode" "0"
}
