"LightMappedGeneric"
{
	"$baseTexture" "z-o-m-b-i-e/metro_2033/props/props_nazgorodov"
	"$bumpmap" "z-o-m-b-i-e/metro_2033/props/props_nazgorodov_norm"
	"$surfaceprop" "paper"
	"$nocull" 1
	"$nodecal" "1"
	"$translucent" "1"
}

	