"LightMappedGeneric"
{
	"$baseTexture" "z-o-m-b-i-e/metro_2033/props/props_l17_altar_kolons_01"
	"$bumpmap" "z-o-m-b-i-e/metro_2033/props/props_l17_altar_kolons_01_norm"
	"$surfaceprop" "concrete"
	"$detail" "z-o-m-b-i-e/STALKER/detail/det_concrete_2"
	"$detailscale" "10.00"
	"$detailblendfactor" "1.0"
	"$detailblendmode" "0"
}