"LightMappedGeneric"
{
	"$baseTexture" "z-o-m-b-i-e/metro_2033/props/props_muzey"
	"$bumpmap" "z-o-m-b-i-e/metro_2033/props/props_muzey_norm"
	"$surfaceprop" "paper"
	"$nocull" 1
	"$nodecal" "1"
	"$translucent" "1"
}
