"VertexLitGeneric"
{
	"$baseTexture" "z-o-m-b-i-e/metro_2033/tile/tile_marmur"
	"$bumpmap" "z-o-m-b-i-e/metro_2033/tile/tile_marmur_norm"
	"$surfaceprop" "tile"
	"$detail" "z-o-m-b-i-e/STALKER/detail/detail_tile_det2"
	"$detailscale" "9.00"
	"$detailblendfactor" "1.0"
	"$detailblendmode" "0"
}

	