"VertexLitGeneric"
{
	"$baseTexture" "z-o-m-b-i-e/metro_2033/tile/tile_slab_3a"
	"$bumpmap" "z-o-m-b-i-e/metro_2033/tile/tile_slab_3a_norm"
	"$surfaceprop" "tile"
	"$detail" "z-o-m-b-i-e/STALKER/detail/detail_tile_det2"
	"$detailscale" "6.00"
	"$detailblendfactor" "1.0"
	"$detailblendmode" "0"
}
	