"LightMappedGeneric"
{
	"$baseTexture" "z-o-m-b-i-e/metro_2033/wood/wood_brevna_01"
	"$bumpmap" "z-o-m-b-i-e/metro_2033/wood/wood_brevna_01_norm"
	"$surfaceprop" "wood"
	"$detail" "z-o-m-b-i-e/metro_2033/det/det_wood"
	"$detailscale" "6.00"
	"$detailblendfactor" "0.8"
	"$detailblendmode" "0"
}

	