VertexLitGeneric
{
	"$basetexture" "models\props_blackmesa\light_sconce02_off"
	"$bumpmap" "models\props_blackmesa\light_sconce02_normal"
	"$envmap" "env_cubemap"
	"$envmaptint" "[0.2 0.2 0.2]"
    "$model" 1

}
