VertexLitGeneric
{
	"$basetexture" "models\props_blackmesa\railing01_joints_skin2"
	"$bumpmap" 		"models/props_blackmesa/railing01_joints01_nm"
	"$model"			"1"
	"$surfaceprop"			"metal"
	"$envmap"			"env_cubemap"
	"$normalmapalphaenvmapmask"	"1"	
   	"$envmaptint"			"[.5 .5 .5]"
//	"$envmapsaturation"		"0.15"
"$phong" "1"
"$phongexponent" "10"
"$phongboost" "1"
"$phongfresnelranges"	"[0.2 .5 1.6]"
"$phongalbedotint" "1"
"$PhongWarpTexture"	"models\props_am\am_ams_phongwarp"


// Rim lighting parameters
"$rimlight" "1"
"$rimlightexponent" "10"
"$rimlightboost" "1"
        $detail detail\bm_rustymetal_detail_01
        $detailscale 2
        $detailblendfactor 1
        $detailblendmode 0	


}
