VertexLitGeneric
{
	"$baseTexture" "z-o-m-b-i-e/STALKER/door/door_wood_03"
	"$bumpmap" "z-o-m-b-i-e/STALKER/door/door_wood_03_norm"
	"$surfaceprop" "wood"
	"$detail" "z-o-m-b-i-e/STALKER/detail/detail_wood_det2_v"
	"$detailscale" "6.00"
	"$detailblendfactor" "0.4"
	"$detailblendmode" "0"
}
