VertexLitGeneric
{
	"$baseTexture" "z-o-m-b-i-e/STALKER/door/door_rusty_iron_0"
	"$bumpmap" "z-o-m-b-i-e/STALKER/door/door_rusty_iron_0_norm"
	"$surfaceprop" "metal"
	"$detail" "z-o-m-b-i-e/STALKER/detail/detail_metall_det2_v"
	"$detailscale" "6.00"
	"$detailblendfactor" "1.0"
	"$detailblendmode" "0"
}

	
