LightmappedGeneric
{
$baseTexture "se_metal/freezerwall_red01"
$surfaceprop metalvent
$Bumpmap "se_metal/freezerwall01-ssbump"
$SSBump 1
$envmap env_cubemap
$envmaptint "[ .2 .2 .2 ]"
$envmapcontrast ".2"
$envmapsaturation 1
$NormalmapAlphaEnvmapMask 1

"$detail" "detail\metal_detail_01"
	"$detailscale" "4.0"
	"$detailblendfactor" .4
	"$detailblendmode" "0"
}
