"LightmappedGeneric"
{
	"$basetexture" "se_metal/metaldoorgate03"
	"$surfaceprop" "Metal"
	
	"$detail" "detail\metal_detail_01"
	"$detailscale" "8.0"
	"$detailblendfactor" .8
	"$detailblendmode" "0"
}
