"LightmappedGeneric"
{
	"$basetexture" "effects/c8_advert021a"
	"$translucent" 1

   	"$envmap" "env_cubemap"	
   	"$surfaceprop" "glass"
   	"$bumpmap" "effects/c8_advert_hex_normal"
   	"$normalmapalphaenvmapmask" 1

	"$additive" "1"
	"$selfillum" "1"
}
