"VertexLitGeneric"
{
	"$baseTexture" "z-o-m-b-i-e/metro_2033/snow/snow_ice_lians_1"
	"$bumpmap" "z-o-m-b-i-e/metro_2033/snow/snow_ice_lians_1_norm"
	"$surfaceprop" "ice"
	"$detail" "z-o-m-b-i-e/metro_2033/snow/snow_det_1"
	"$detailscale" "9.00"
	"$detailblendfactor" "0.8"
	"$detailblendmode" "0"
}
