LightmappedGeneric
{
	"$baseTexture" "z-o-m-b-i-e/STALKER/ston/ston_rocks_det"
	"$bumpmap" "z-o-m-b-i-e/STALKER/ston/ston_rocks_det_norm"
	"$surfaceprop" "rock"
	"$detail" "z-o-m-b-i-e/STALKER/detail/detail_beton_det4"
	"$detailscale" "6.00"
	"$detailblendfactor" "1.0"
	"$detailblendmode" "0"
}

	
