LightmappedGeneric
{
	"$baseTexture" "z-o-m-b-i-e/STALKER/ston/ston_bricks3_a"
	"$bumpmap" "z-o-m-b-i-e/STALKER/ston/ston_bricks3_a_norm"
	"$surfaceprop" "brick"
	"$detail" "z-o-m-b-i-e/STALKER/detail/detail_brick_det1_u"
	"$detailscale" "6.00"
	"$detailblendfactor" "1.0"
	"$detailblendmode" "0"
}
	
	
