LightmappedGeneric
{
	"$baseTexture" "z-o-m-b-i-e/STALKER/ston/ston_asfalt_hr_iov"
	"$bumpmap" "z-o-m-b-i-e/STALKER/ston/ston_asfalt_hr_iov_norm"
	"$surfaceprop" "concrete"
	"$detail" "z-o-m-b-i-e/STALKER/detail/detail_stucco_det1"
	"$detailscale" "6.00"
	"$detailblendfactor" "1.0"
	"$detailblendmode" "0"
}
