LightmappedGeneric
{
	"$baseTexture" "z-o-m-b-i-e/STALKER/ston/ston_bricks8_bez_zeleni"
	"$bumpmap" "z-o-m-b-i-e/STALKER/ston/ston_bricks8_bez_zeleni_norm"
	"$surfaceprop" "brick"
	"$detail" "z-o-m-b-i-e/STALKER/detail/detail_brick_det1"
	"$detailscale" "6.00"
	"$detailblendfactor" "1.0"
	"$detailblendmode" "0"
}
	
