LightmappedGeneric
{
	"$baseTexture" "z-o-m-b-i-e/STALKER/ston/ston_plitka_iov_wall_01"
	"$bumpmap" "z-o-m-b-i-e/STALKER/ston/ston_plitka_iov_wall_01_norm"
	"$surfaceprop" "tile"
	"$detail" "z-o-m-b-i-e/STALKER/detail/detail_tile_det2"
	"$detailscale" "6.00"
	"$detailblendfactor" "1.0"
	"$detailblendmode" "0"
}

	
