LightmappedGeneric
{
	"$baseTexture" "z-o-m-b-i-e/STALKER/ston/ston_oblicovka_gr02"
	"$bumpmap" "z-o-m-b-i-e/STALKER/ston/ston_oblicovka_gr02_norm"
	"$surfaceprop" "tile"
	"$detail" "z-o-m-b-i-e/STALKER/detail/detail_beton_det4_u"
	"$detailscale" "6.00"
	"$detailblendfactor" "1.0"
	"$detailblendmode" "0"
}
