"Unlittwotexture"
{
	"$model" "1"
	"$basetexture" "sand/monitor/cmb_nexus_reactor_screen_2"
	"$surfaceprop" "glass"
	"$texture2"	"models/props_combine/combinescanline"
	"$selfillum" "1"
	"$mod2x" "1"
//	"$additive" "1"

	"Proxies"
	{

		//"Sine"
		//{
		//	"resultVar" "$color[0]"
		//	"sineperiod" 1
		//	"sinemin" .2
		//	"sinemax" 2
		//}
		//"Sine"
		//{
		//	"resultVar" "$color[1]"
		//	"sineperiod" .5
		//	"sinemin" .1
		//	"sinemax" 1
		//}
		//"Sine"
		//{
		//	"resultVar" "$color[2]"
		//	"sineperiod" .5
		//	"sinemin" .1
		//	"sinemax" 1
		//}

		"TextureScroll"
		{
			"texturescrollvar" "$texture2transform"
			"texturescrollrate" 1
			"texturescrollangle" -90
		}


	}

}