VertexLitGeneric
{
	"$basetexture" "z-o-m-b-i-e/stalker/crete/crete_beton_7"
	"$surfaceprop" "concrete"
	"$detail" "z-o-m-b-i-e/stalker/detail/detail_beton_det4"
	"$detailscale" "6.00"
	"$detailblendfactor" "1.0"
	"$detailblendmode" "0"
}
