VertexLitGeneric
{
	"$basetexture" "z-o-m-b-i-e/stalker/crete/crete_schiffer2"
	"$detail" "z-o-m-b-i-e\detail\detail_beton_det1"
	"$detailscale" "5.00"
	"$detailblendfactor" "0.8"
	"$detailblendmode" "0"
	"$surfaceprop" "concrete"
}
