VertexLitGeneric
{
	"$basetexture" "z-o-m-b-i-e/stalker/tile/tile_walls_dark_01"
	"$surfaceprop" "tile"
	"$detail" "z-o-m-b-i-e/stalker/detail/detail_tile_det2"
	"$detailscale" "6.00"
	"$detailblendfactor" "1.0"
	"$detailblendmode" "0"
}	
