"vertexlitgeneric"
{
	"$basetexture" "brick/brickwall034f"
			"$surfaceprop" "brick"

	"$detail" "detail\noise_detail_01"
	"$detailscale" "7.740"
	"$detailblendfactor" .8

	"$detailblendmode" 0
	"%keywords" "c17downtown"
}
