"VertexlitGeneric" //gener 2311
{
	"$basetexture" "building_template/courtyard_template002g"
	"$surfaceprop"  "concrete"
	"$detail" "detail\beton"
	"$detailscale" "3.583"
	"$detailblendfactor" 1.2
	"$detailblendmode" "0"

	"$envmap" "env_cubemap"
	"$basealphaenvmapmask" 1
	"$envmapcontrast" 1
	"$envmapsaturation" 1
	"$envmaptint" "[ .75 .75 .75]"
	"vertexlitgeneric_dx8"
	{
		"$envmaptint" "[.25 .25 .25]"
	}

	"vertexlitgeneric_hdr_dx9"
 	{
  		"$envmaptint" "[.01 .01 .01]"
 	}


	"vertexlitgeneric_dx9"
 	{
  		"$envmaptint" "[.01 .01 .01]"
 	} 
}
