"LightMappedGeneric"
{
	"$baseTexture" "z-o-m-b-i-e/metro_2033/garbage/garbage_crushed_stone"
	"$bumpmap" "z-o-m-b-i-e/metro_2033/garbage/garbage_crushed_stone_norm"
	"$surfaceprop" "concrete"
	"$detail" "z-o-m-b-i-e/STALKER/detail/detail_dirt_det1"
	"$detailscale" "6.00"
	"$detailblendfactor" "1.0"
	"$detailblendmode" "0"
}
