VertexLitGeneric
{
	"$baseTexture" "models\props/clock"

	"$bumpmap" "models\props\clock_normal"
	"$phong" "1"
	"$phongexponenttexture" "models\props\clock_exponent"
//	"$phongexponent" "25"
	
	"$phongboost" "3"	
	"$lightwarptexture" "models\props\clock_lightwarp"
	"$phongfresnelranges"	"[5 1 2]"
//	"$halflambert" "1"

//	"$envmap" "env_cubemap"
//  "$normalmapalphaenvmapmask" 1

    "$selfillum" 1
}
