"vertexlitgeneric"
{
	"$basetexture" "z-o-m-b-i-e/stalker/crete/crete_border2"
	"$bumpmap" "z-o-m-b-i-e/stalker/crete/crete_border2_norm"
	"$surfaceprop" "concrete"
	"$detail" "z-o-m-b-i-e/stalker/detail/detail_beton_det4_u2"
	"$detailscale" "6.00"
	"$detailblendfactor" "1.0"
	"$detailblendmode" "0"
}
	