VertexLitGeneric
{
	"$basetexture" "z-o-m-b-i-e/stalker/mtl/mtl_floor_plate_02"
	//"$bumpmap" "z-o-m-b-i-e/stalker/mtl/mtl_floor_plate_02_norm"
	"$surfaceprop" "metal"
	"$detail" "z-o-m-b-i-e/stalker/detail/detail_metall_det1"
	"$detailscale" "6.00"
	"$detailblendfactor" "1.0"
	"$detailblendmode" "0"
}
