VertexLitGeneric
{
	"$basetexture" "z-o-m-b-i-e/stalker/ston/ston_beton_floor_iov_01"
	//"$bumpmap" "z-o-m-b-i-e/stalker/ston/ston_beton_floor_iov_01_norm"
	"$surfaceprop" "concrete"
	"$detail" "z-o-m-b-i-e/stalker/detail/detail_beton_det4"
	"$detailscale" "6.00"
	"$detailblendfactor" "1.0"
	"$detailblendmode" "0"
}
		
