VertexLitGeneric
{
     "$basetexture" "models\props_interiors\furniture_shelf01a"
     "$surfaceprop" "dirt"
     "$envmap" "env_cubemap"
     "$basealphaenvmapmask" 1 
     "$envmaptint" "[ .25 .25 .25]"
}
