WorldVertexTransition
{
	"$basetexture" "highdef/metro2033/snow/snow_dsc"
	"$bumpmap" "highdef/metro2033/snow/snow_dsc_ssbump"
	"$basetexture2" "highdef/metro2033/snow/snow_l17"
	"$bumpmap2" "highdef/metro2033/snow/snow_l17_ssbump"
	"$ssbump" "1"
	"$surfaceprop" "Snow"
	"$surfaceprop2" "Snow"
	"$blendmodulatetexture" "highdef/metro2033/ground/grass_blendmask"
	"%keywords" "metro"
}
