"LightMappedGeneric"
{
	"$baseTexture" "z-o-m-b-i-e/metro_2033/snow/snow_l21"
	"$bumpmap" "z-o-m-b-i-e/metro_2033/snow/snow_l21_norm"
	"$surfaceprop" "snow"
	"$detail" "z-o-m-b-i-e/metro_2033/snow/snow_det_1"
	"$detailscale" "9.00"
	"$detailblendfactor" "0.8"
	"$detailblendmode" "0"
}
