vertexlitgeneric
{
$basetexture "se_glass/hotel_glass001"
$envmap env_cubemap
$surfaceprop glass
"%keywords" c17industrial

$translucent 1
$envmapcontrast 1
$envmapsaturation 1
$envmaptint "[.1 .1 .1]"
}
