VertexLitGeneric
{
	"$baseTexture" "z-o-m-b-i-e/STALKER/ston/ston_beton05"
	"$bumpmap" "z-o-m-b-i-e/STALKER/ston/ston_beton05_norm"
	"$surfaceprop" "concrete"
	"$detail" "z-o-m-b-i-e/STALKER/detail/detail_beton_det4"
	"$detailscale" "6.00"
	"$detailblendfactor" "1.0"
	"$detailblendmode" "0"
}
