VertexLitGeneric
{
	"$baseTexture" "z-o-m-b-i-e/STALKER/ston/ston_pol_smola_iov"
	"$bumpmap" "z-o-m-b-i-e/STALKER/ston/ston_pol_smola_iov_norm"
	"$surfaceprop" "concrete"
	"$detail" "z-o-m-b-i-e/STALKER/detail/detail_bitum_det2"
	"$detailscale" "6.00"
	"$detailblendfactor" "1.0"
	"$detailblendmode" "0"
}
