"VertexLitGeneric"
{
	"$baseTexture" "z-o-m-b-i-e/metro_2033/background34/background34_mid_panelni01"
	//"$bumpmap" "z-o-m-b-i-e/metro_2033/background/background34_mid_panelni01_norm"
	"$surfaceprop" "concrete"
	"$nodecal" "1"
	"$alphatest" "1"
}
	