"LightMappedGeneric"
{
	"$baseTexture" "z-o-m-b-i-e/metro_2033/door/door_04"
	"$bumpmap" "z-o-m-b-i-e/metro_2033/door/door_04_norm"
	"$surfaceprop" "metal"
	"$detail" "z-o-m-b-i-e/metro_2033/det/det_metal_rust_03"
	"$detailscale" "6.00"
	"$detailblendfactor" "1.0"
	"$detailblendmode" "0"
}

	