"VertexlitGeneric"
{
	"$basetexture"				"models/props_se/zil131/zil131_accessory_1"

	"$bumpmap"					"models/props_se/zil131/zil131_accessory_1_norm"
	
	"$normalmapalphaenvmapmask"	"1"
	"$envmap"					"env_cubemap"
	"$envmaptint"				"[.75 .75 .75]"
	"$envmapcontrast"			"0.5"
	"$envmapsaturation"			"0.5"
	
	"$phong"					"1"
	"$phongexponent"			"10"
    "$phongboost"				"0.2"
	"$phongfresnelranges"		"[0.5 0.5 0.5]"
}