"VertexlitGeneric"
{
	"$basetexture"		"models/props_se/zil131/zil131_accessory_3_int"

	"$envmapmask"		"models/props_se/zil131/zil131_accessory_3_int_env"
	"$envmap"			"env_cubemap"
	"$envmaptint"		"[.65 .65 .65]"
	"$envmapcontrast" "0.5"
	"$envmapsaturation" "0.5"
}