"VertexlitGeneric"
{
	"$basetexture"				"models/props_se/zil131/zil131_accessory_2"

	"$bumpmap"					"models/props_se/zil131/zil131_accessory_2_norm"
	
	"$phong"					"1"
	"$phongexponent"			"10"
    "$phongboost"				"0.2"
	"$phongfresnelranges"		"[0.5 0.5 0.5]"
}