VertexLitGeneric
//Created in MjolnirSDK 0.89
{
	"$baseTexture" "z-o-m-b-i-e/STALKER/crete/crete_plitka1b"
	//"$uvmap" "z-o-m-b-i-e/STALKER/crete/crete_plitka1b_uvmap.pypv"
	"$surfaceprop" "concrete"
}
