VertexLitGeneric
//Created in MjolnirSDK 0.89
{
	"$baseTexture" "models\vanderagsn\MjolnirSDK\autocombines\rp_mystery1a\stuff/crete_schiffer1"
	//"$uvmap" "z-o-m-b-i-e/STALKER/crete/crete_schiffer2_uvmap.pypv"
	"$detail" "Z-O-M-B-I-E\detail\detail_beton_det1"
	"$detailscale" "5.00"
	"$detailblendfactor" "0.8"
	"$detailblendmode" "0"
	"$surfaceprop" "concrete"
}
