VertexLitGeneric
//Created in MjolnirSDK 0.89
{
	"$baseTexture" "z-o-m-b-i-e/STALKER/crete/crete_walls_gr12"
	//"$uvmap" "z-o-m-b-i-e/STALKER/crete/crete_walls_gr12_uvmap.pypv"
	"$surfaceprop" "concrete"
}
