VertexLitGeneric
//Created in MjolnirSDK 0.89
{
	"$baseTexture" "z-o-m-b-i-e/STALKER/glass/glass_blocks"
	//"$uvmap" "z-o-m-b-i-e/STALKER/glass/glass_blocks_uvmap.pypv"
	"$surfaceprop" "glass"
	"$translucent" "1"
}
