VertexLitGeneric
//Created in MjolnirSDK 0.89
{
	"$baseTexture" "z-o-m-b-i-e/STALKER/grnd/grnd_dirt_dark2"
	//"$uvmap" "z-o-m-b-i-e/STALKER/grnd/grnd_dirt_dark2_uvmap.pypv"
	"$surfaceprop" "dirt"
}

	
