VertexLitGeneric
//Created in MjolnirSDK 0.89
{
	"$baseTexture" "z-o-m-b-i-e/STALKER/grnd/grnd_grass_military_2"
	//"$uvmap" "z-o-m-b-i-e/STALKER/grnd/grnd_grass_military_2_uvmap.pypv"
	"$surfaceprop" "grass"
}
	
