VertexLitGeneric
//Created in MjolnirSDK 0.89
{
	"$baseTexture" "z-o-m-b-i-e/STALKER/grnd/grnd_for_terraine"
	//"$uvmap" "z-o-m-b-i-e/STALKER/grnd/grnd_for_terraine_uvmap.pypv"
	"$surfaceprop" "dirt"
}
	
