VertexLitGeneric
//Created in MjolnirSDK 0.89
{
	"$baseTexture" "z-o-m-b-i-e/STALKER/grnd/grnd_asphalt1_border1a"
	//"$uvmap" "z-o-m-b-i-e/STALKER/grnd/grnd_asphalt1_border1a_uvmap.pypv"
	"$surfaceprop" "concrete"
}
	
