VertexLitGeneric
//Created in MjolnirSDK 0.89
{
	"$baseTexture" "z-o-m-b-i-e/STALKER/grnd/grnd_concrete_2"
	//"$uvmap" "z-o-m-b-i-e/STALKER/grnd/grnd_concrete_2_uvmap.pypv"
	"$surfaceprop" "concrete"
}
