VertexLitGeneric
//Created in MjolnirSDK 0.89
{
	"$baseTexture" "z-o-m-b-i-e/STALKER/item/item_textolitbase"
	//"$uvmap" "z-o-m-b-i-e/STALKER/item/item_textolitbase_uvmap.pypv"
	"$surfaceprop" "plastic"
}
