VertexLitGeneric
//Created in MjolnirSDK 0.89
{
	"$baseTexture" "z-o-m-b-i-e/STALKER/mtl/mtl_railroad_02"
	//"$uvmap" "z-o-m-b-i-e/STALKER/mtl/mtl_railroad_02_uvmap.pypv"
	"$surfaceprop" "concrete"
	"$detail" "z-o-m-b-i-e/STALKER/detail/detail_metall_det2_v"
	"$detailscale" "6.00"
	"$detailblendfactor" "1.0"
	"$detailblendmode" "0"
}
