VertexLitGeneric
//Created in MjolnirSDK 0.89
{
	"$baseTexture" "z-o-m-b-i-e/STALKER/mtl/mtl_reshetka_pot_01"
	//"$uvmap" "z-o-m-b-i-e/STALKER/mtl/mtl_reshetka_pot_01_uvmap.pypv"
	"$surfaceprop" "metal"
	"$nodecal" "1"
}
