VertexLitGeneric
//Created in MjolnirSDK 0.89
{
	"$baseTexture" "z-o-m-b-i-e/STALKER/mtl/mtl_girder_reil_b"
	//"$uvmap" "z-o-m-b-i-e/STALKER/mtl/mtl_girder_reil_b_uvmap.pypv"
	"$surfaceprop" "metal"
	"$translucent" "1"
}
