VertexLitGeneric
//Created in MjolnirSDK 0.89
{
	"$baseTexture" "z-o-m-b-i-e/STALKER/prop/prop_potolok_ptu_iov"
	//"$uvmap" "z-o-m-b-i-e/STALKER/prop/prop_potolok_ptu_iov_uvmap.pypv"
	"$surfaceprop" "plaster"
}
	
