VertexLitGeneric
//Created in MjolnirSDK 0.89
{
	"$baseTexture" "z-o-m-b-i-e/STALKER/prop/prop_lampa_galogen_1"
	//"$uvmap" "z-o-m-b-i-e/STALKER/prop/prop_lampa_galogen_1_uvmap.pypv"
	"$surfaceprop" "glass"
}
	
