VertexLitGeneric
//Created in MjolnirSDK 0.89
{
	"$baseTexture" "z-o-m-b-i-e/STALKER/prop/prop_kolba_light"
	//"$uvmap" "z-o-m-b-i-e/STALKER/prop/prop_kolba_light_uvmap.pypv"
	"$surfaceprop" "glass"
}
