VertexLitGeneric
//Created in MjolnirSDK 0.89
{
	"$baseTexture" "z-o-m-b-i-e/STALKER/prop/prop_web_01"
	//"$uvmap" "z-o-m-b-i-e/STALKER/prop/prop_web_01_uvmap.pypv"
	"$nocull" 1
	"$nodecal" "1"
	"$translucent" "1"
}
	
