VertexLitGeneric
//Created in MjolnirSDK 0.89
{
	"$baseTexture" "z-o-m-b-i-e/STALKER/prop/prop_sheet"
	//"$uvmap" "z-o-m-b-i-e/STALKER/prop/prop_sheet_uvmap.pypv"
	"$surfaceprop" "dirt"
	"$detail" "z-o-m-b-i-e/STALKER/detail/detail_dirt_det1"
	"$detailscale" "6.00"
	"$detailblendfactor" "1.0"
	"$detailblendmode" "0"
}
