VertexLitGeneric
//Created in MjolnirSDK 0.89
{
	"$baseTexture" "z-o-m-b-i-e/STALKER/prop/prop_trainwheel2"
	//"$uvmap" "z-o-m-b-i-e/STALKER/prop/prop_trainwheel2_uvmap.pypv"
	"$surfaceprop" "metal"
}
