VertexLitGeneric
//Created in MjolnirSDK 0.89
{
	"$baseTexture" "z-o-m-b-i-e/STALKER/sign/sign_railcross1_pole"
	//"$uvmap" "z-o-m-b-i-e/STALKER/sign/sign_railcross1_pole_uvmap.pypv"
	"$surfaceprop" "metal"
}
	
