VertexLitGeneric
//Created in MjolnirSDK 0.89
{
	"$baseTexture" "z-o-m-b-i-e/STALKER/sign/sign_prodmag_iov"
	//"$uvmap" "z-o-m-b-i-e/STALKER/sign/sign_prodmag_iov_uvmap.pypv"
	"$surfaceprop" "concrete"
}
