VertexLitGeneric
//Created in MjolnirSDK 0.89
{
	"$baseTexture" "z-o-m-b-i-e/STALKER/sign/sign_railcross1a"
	//"$uvmap" "z-o-m-b-i-e/STALKER/sign/sign_railcross1a_uvmap.pypv"
	"$surfaceprop" "metal"
}
