VertexLitGeneric
//Created in MjolnirSDK 0.89
{
	"$baseTexture" "z-o-m-b-i-e/STALKER/ston/ston_stena_ch_01"
	//"$uvmap" "z-o-m-b-i-e/STALKER/ston/ston_stena_ch_01_uvmap.pypv"
	"$surfaceprop" "concrete"
}
