VertexLitGeneric
//Created in MjolnirSDK 0.89
{
	"$baseTexture" "z-o-m-b-i-e/STALKER/ston/ston_brick_det"
	//"$uvmap" "z-o-m-b-i-e/STALKER/ston/ston_brick_det_uvmap.pypv"
	"$surfaceprop" "brick"
	"$detail" "z-o-m-b-i-e/STALKER/detail/detail_brick_det1"
	"$detailscale" "6.00"
	"$detailblendfactor" "1.0"
	"$detailblendmode" "0"
}

	
