VertexLitGeneric
//Created in MjolnirSDK 0.89
{
	"$baseTexture" "z-o-m-b-i-e/STALKER/trees/trees_bark_sosna_01"
	//"$uvmap" "z-o-m-b-i-e/STALKER/trees/trees_bark_sosna_01_uvmap.pypv"
	"$surfaceprop" "wood"
	"$detail" "z-o-m-b-i-e/STALKER/trees/trees_det2"
	"$detailscale" "3.00"
	"$detailblendfactor" "0.8"
	"$detailblendmode" "0"
}
