VertexLitGeneric
//Created in MjolnirSDK 0.89
{
	"$baseTexture" "z-o-m-b-i-e/STALKER/veh/veh_avtobus_laz_fire"
	//"$uvmap" "z-o-m-b-i-e/STALKER/veh/veh_avtobus_laz_fire_uvmap.pypv"
	"$surfaceprop" "metal"
	"$detail" "z-o-m-b-i-e/STALKER/detail/detail_metall_det1"
	"$detailscale" "8.00"
	"$detailblendfactor" "1.0"
	"$detailblendmode" "0"
}
