VertexLitGeneric
//Created in MjolnirSDK 0.89
{
	"$baseTexture" "z-o-m-b-i-e/STALKER/veh/veh_kamaz_kabin1c"
	//"$uvmap" "z-o-m-b-i-e/STALKER/veh/veh_kamaz_kabin1c_uvmap.pypv"
	"$surfaceprop" "metal"
	"$detail" "z-o-m-b-i-e/STALKER/detail/detail_metall_det1"
	"$detailscale" "6.00"
	"$detailblendfactor" "1.0"
	"$detailblendmode" "0"
}
