VertexLitGeneric
//Created in MjolnirSDK 0.89
{
	"$baseTexture" "z-o-m-b-i-e/STALKER/veh/veh_lorry_2"
	//"$uvmap" "z-o-m-b-i-e/STALKER/veh/veh_lorry_2_uvmap.pypv"
	"$surfaceprop" "metal"
	"$detail" "z-o-m-b-i-e/STALKER/detail/detail_metall_det1"
	"$detailscale" "6.00"
	"$detailblendfactor" "1.0"
	"$detailblendmode" "0"
	"$phong" "1" 
	"$phongboost" "10" 
	"$phongexponent"  "15" //15
	"$phongfresnelranges" "[0.3 0.5 1]" 
}
