VertexLitGeneric
//Created in MjolnirSDK 0.89
{
	"$baseTexture" "z-o-m-b-i-e/STALKER/wall/wall_house_white_03b"
	//"$uvmap" "z-o-m-b-i-e/STALKER/wall/wall_house_white_03b_uvmap.pypv"
	"$surfaceprop" "concrete"
	"$detail" "z-o-m-b-i-e/STALKER/detail/detail_beton_det4_v2"
	"$detailscale" "3.0"
	"$detailblendfactor" "1.0"
	"$detailblendmode" "0"
}
	
