VertexLitGeneric
//Created in MjolnirSDK 0.89
{
	"$baseTexture" "z-o-m-b-i-e/STALKER/wind/wind_97"
	//"$uvmap" "z-o-m-b-i-e/STALKER/wind/wind_97_uvmap.pypv"
	"$surfaceprop" "glass"
	"$translucent" "1"
}
