VertexLitGeneric
//Created in MjolnirSDK 0.89
{
	"$baseTexture" "z-o-m-b-i-e/STALKER/wind/wind_04_ch_transp_a"
	//"$uvmap" "z-o-m-b-i-e/STALKER/wind/wind_04_ch_transp_a_uvmap.pypv"
	"$surfaceprop" "glass"
	"$translucent" "1"
}
	
