VertexLitGeneric
//Created in MjolnirSDK 0.89
{
	"$baseTexture" "z-o-m-b-i-e/STALKER/wood/wood_walls10_dark"
	//"$uvmap" "z-o-m-b-i-e/STALKER/wood/wood_walls10_dark_uvmap.pypv"
	"$surfaceprop" "wood"
	"$detail" "z-o-m-b-i-e/STALKER/detail/detail_wood_det2_v"
	"$detailscale" "6.00"
	"$detailblendfactor" "0.4"
	"$detailblendmode" "0"
}
