// envmaptint_fix
"VertexlitGeneric" //gener 2311
{
	"$basetexture" "vehicle/metaltrain001c"
	"$surfaceprop" "metal"
	"$bumpmap" "vehicle/metaltrain001c_normal"
	"$envmap" "env_cubemap"
	"$normalmapalphaenvmapmask" 1
	"$envmapcontrast" 1
	"$envmapsaturation" 1
	"$envmaptint" "[ .86 .86 .86 ]"

        "$detail" "detail\metal_detail_01"
	"$detailscale" "5.345"
	"$detailblendfactor" .6
	"$detailblendmode" 0
}
