"VertexLitGeneric"
{
	"$baseTexture" "z-o-m-b-i-e/metro_2033/floor/floor_tunnel_pod"
	"$bumpmap" "z-o-m-b-i-e/metro_2033/floor/floor_tunnel_pod_norm"
	"$surfaceprop" "concrete"
	"$detail" "z-o-m-b-i-e/metro_2033/det/det_concrete_3"
	"$detailscale" "6.00"
	"$detailblendfactor" "1.0"
	"$detailblendmode" "0"
}