"VertexLitGeneric"
{
	"$baseTexture" "z-o-m-b-i-e/metro_2033/floor/floor_redcarpet_des"
	"$bumpmap" "z-o-m-b-i-e/metro_2033/floor/floor_redcarpet_des_norm"
	"$surfaceprop" "carpet"
	"$detail" "z-o-m-b-i-e/metro_2033/det/det_fabric_1"
	"$detailscale" "6.00"
	"$detailblendfactor" "1.0"
	"$detailblendmode" "0"
}