Vertexlitgeneric
{
	$basetexture models\props_borealis\borealis_panels_top
	$bumpmap bumpmaps\bump_generic01
	$phong 1
	$phongexponent 20
	$phongboost 0.1
	$phongfresnelranges "[.5 .2 .05]"
	$detail detail\detail_noise1
	$detailscale 0.25
	$detailblendfactor .5
}