VertexLitGeneric
{
	// This has selfillum in the alpha channel
	"$basetexture" "models/props_borealis/light_fluorescent001a"
	// self-illuminate using the alpha channel of the base texture
	"$selfillum" 1
	"$envmap" "env_cubemap"
}
