"WorldVertexTransition"
{
	"$basetexture" "se_concrete/sde_concrete_plaster_22"
	"$basetexture2" "se_concrete/sde_concrete_brick"
	"$bumpmap2" "se_concrete/sde_concrete_brick_norm"
	"$surfaceprop"  "concrete"

	"$blendmodulatetexture" "se_concrete/brick_blend"

	//"$envmap" "env_cubemap"
	//"$basealphaenvmapmask" 1
	//"$envmapcontrast" 1
	//"$envmapsaturation" 1
	//"$envmaptint" "[ .15 .15 .15]"
}
