"LightmappedGeneric"
{
	"$basetexture" "se_concrete/sg_concrete_wall_5a"
	"$bumpmap" "se_concrete/sg_concrete_wall_5_norm"
	"$surfaceprop" "Concrete"
	
	"$detail" "detail\beton"
	"$detailscale" "4.0"
	"$detailblendfactor" .6
	"$detailblendmode" "0"
}
