WorldVertexTransition
{
	$basetexture "nature/rockwall015a"
	$bumpmap "boreas/nature/rockwall01_normal"
	
	$basetexture2 "nature/snowfloor001a"
	$bumpmap2 "boreas/nature/snowfloor01_normal"
	
	$seamless_scale 0.005
	$blendmodulatetexture "boreas/effects/blend01"
	
	$surfaceprop "sand"
}
