"LightMappedGeneric"
{
	"$baseTexture" "z-o-m-b-i-e/metro_2033/bricks/bricks_kirpic_3"
	"$bumpmap" "z-o-m-b-i-e/metro_2033/bricks/bricks_kirpic_3_norm"
	"$surfaceprop" "brick"
	"$detail" "z-o-m-b-i-e/STALKER/detail/detail_brick_det1"
	"$detailscale" "6.00"
	"$detailblendfactor" "1.0"
	"$detailblendmode" "0"
}