VertexLitGeneric
{
$basetexture "models\props\De_Vertigo\constructionSite_stairs"
$bumpmap "models\props\De_Vertigo\constructionSite_stairs_N.vtf"

$surfaceprop metal

$basemapalphaphongmask 1
$phong 1
$phongBoost 1
$phongExponent 45
$phongfresnelranges "[0.8 0.8 1]"
$phongTint "{160 190 231}"

}
