"VertexlitGeneric"
{
	"$basetexture" "models/props_se/building/dvor_vehicle_gate_6"
	
	"$envmap" "env_cubemap"
	"$envmapmask" "models/props_se/building/dvor_vehicle_gate_6_env"
	"$envmaptint" "[.65 .65 .65]"
}
