"VertexlitGeneric"
{
	"$basetexture" "models/props_se/school/school_table_04"
	"$bumpmap" "models/props_se/school/school_table_01_norm"
	
	$phong 1
	$phongexponent   10
    $phongboost    0.2
	$phongfresnelranges  "[0.5 0.5 0.5]"
}
