"LightmappedGeneric"
{
	"$basetexture" "se_tile/tilewall02"
	"$surfaceprop" "tile"
	"%keywords" "c17downtown"
	"$bumpmap" "se_tile/tilewall01_norm.vtf"
	//"$bumptransform" "center .5 .5 scale 1.5 1.5 rotate 0 translate 0 0";
	"$envmap" "env_cubemap"
	"$normalmapalphaenvmapmask" 1
	"$envmapcontrast" 1
	"$envmapsaturation" 1
	"$envmaptint" "[ .56 .56 .56 ]"
}