LightmappedGeneric
{
	"$baseTexture" "z-o-m-b-i-e/STALKER/mtl/mtl_set2_iov"
	"$bumpmap" "z-o-m-b-i-e/STALKER/mtl/mtl_set2_iov_norm"
	"$surfaceprop" "metal"
	"$detail" "z-o-m-b-i-e/STALKER/detail/detail_metall_det1"
	"$detailscale" "6.00"
	"$detailblendfactor" "1.0"
	"$detailblendmode" "0"
}
