LightmappedGeneric
{
	"$baseTexture" "z-o-m-b-i-e/STALKER/mtl/mtl_x-support1"
	"$bumpmap" "z-o-m-b-i-e/STALKER/mtl/mtl_x-support1_norm"
	"$surfaceprop" "metal"
	"$detail" "z-o-m-b-i-e/STALKER/detail/detail_metall_det2_v"
	"$detailscale" "6.00"
	"$detailblendfactor" "1.0"
	"$detailblendmode" "0"
	"$nocull" 1
	"$nodecal" "1"
	"$translucent" "1"
}
	
