"VertexlitGeneric"
{
	"$basetexture"				"models/props_se/aperture_pc_case_flat_1"
	"$bumpmap"					"models/props_se/aperture_pc_case_flat_norm"
	
	"$selfillum" "1"
    "$selfillummask"			"models/props_se/aperture_pc_case_flat_illum"
	
	"$phong"					"1"
	"$phongexponent"			"10"
    "$phongboost"				"0.2"
	"$phongfresnelranges"		"[1 1.5 2]"
	
	
	
	"Proxies"
		{
		"Sine"
			{
				"sineperiod" "2.5"
				"sinemin" ".8"
				"sinemax" "1"
				"resultVar" "$selfillumtint[0]"
			}
		"Sine"
			{
				"sineperiod" "2.5"
				"sinemin" ".2"
				"sinemax" "1"
				"resultVar" "$selfillumtint[1]"
			}
		"Sine"
			{
				"sineperiod" "2.5"
				"sinemin" ".2"
				"sinemax" "1"
				"resultVar" "$selfillumtint[2]"
			}
		}
}