"VertexLitGeneric"
{
	"$basetexture"	"models/props_se/aperture_pc_case_2"
	"$surfaceprop"	"metal"
	"$bumpmap"	"models/props_se/aperture_pc_case_norm"
	"$phong"	"1"
	"$phongboost"	"6"
	"$phongexponenttexture"	"models/props_se/aperture_pc_case_exp"
	"$phongfresnelranges"	"[1 1.5 2]"
	"Proxies"
		{
		"Sine"
			{
				"sineperiod" "2.5"
				"sinemin" ".8"
				"sinemax" "1"
				"resultVar" "$selfillumtint[0]"
			}
		"Sine"
			{
				"sineperiod" "2.5"
				"sinemin" ".2"
				"sinemax" "1"
				"resultVar" "$selfillumtint[1]"
			}
		"Sine"
			{
				"sineperiod" "2.5"
				"sinemin" ".2"
				"sinemax" "1"
				"resultVar" "$selfillumtint[2]"
			}
		}
}