"VertexlitGeneric"
{
	"$basetexture" "models/props_se/aperture_pda_3"
	"$bumpmap" "models/props_se/aperture_pda_norm"
	"$selfillum" 1
	
	$phong 1
	$phongexponent   20
    $phongboost    0.4
	$phongfresnelranges  "[0.5 0.5 0.5]"
}
