"VertexlitGeneric"
{
	"$basetexture"				"models/props_se/aperture_pc_case_flat_2"
	"$bumpmap"					"models/props_se/aperture_pc_case_flat_norm"
	
	"$phong"					"1"
	"$phongexponent"			"10"
    "$phongboost"				"0.2"
	"$phongfresnelranges"		"[1 1.5 2]"
}