"VertexLitGeneric"
{
	"$basetexture"	"models/props_se/binocular"
	"$surfaceprop"	"metal"
	"$bumpmap"	"models/props_se/binocular_norm"

	//phong properties
	"$phong"	"1"
	"$phongexponent"   10
    "$phongboost"    0.2
	"$phongexponenttexture"	"models/props_se/binocular_exp"
	"$phongfresnelranges"	"[1 1.5 2]"

}