"VertexlitGeneric"
{
	"$basetexture" "models/props_se/bucket004"
	"$envmap" "env_cubemap"
	"$basealphaenvmapmask" 1
	"$envmaptint" "[ .7 .7 .7 ]"
	"$envmapcontrast" "0.1"
	"$envmapsaturation" "0.1"
	
	"$detail" "detail\metal_detail_01"
	"$detailscale" "6.0"
	"$detailblendfactor" .4
	"$detailblendmode" "0"
}
