"VertexLitGeneric"
{
    "$basetexture" "models\props_se\concrete_pipe001a_01"
    "$surfaceprop" "concrete"
	
	"$detail" "detail\beton"
	"$detailscale" "4.0"
	"$detailblendfactor" .3
	"$detailblendmode" "0"
}