"VertexLitGeneric"
{
	"$baseTexture" 				"models\props_se\csgo_swat_van_generic"
	
	"$envmap" 					"env_cubemap"
	"$envmapmask" 				"models\props_se\csgo_swat_van_generic_env"
	"$envmapfresnel"			"1"
	"$envmaptint"				"[.15 .15 .15]"
}
