"VertexlitGeneric"
{
	"$basetexture" "models/props_se/decor_junk_sovok"
	"$bumpmap"	"models/props_se/detail_normal_2"
	$phong 1
	$phongexponent   10
    $phongboost    0.8
	$phongfresnelranges  "[0.5 0.5 0.5]"
}
