"VertexlitGeneric"
{
	"$basetexture" "models/props_se/effect_ground"
	"$bumpmap" "models/props_se/effect_ground_norm"
	"$detail" "detail\noise_detail_01"
	"$detailscale" "26.0"
	"$detailblendfactor" 0.8
	"$detailblendmode" "0"
}
