"VertexlitGeneric" //gener 2311
{
	"$basetexture"	"models/props_se/flashlight"
	"$surfaceprop"	"metal"
	"$bumpmap"	"models/props_se/flashlight_norm"

	//phong properties
	"$phong"	"1"
	"$phongboost"	"5"
	"$phongexponenttexture"	"models/props_se/flashlight_exp"
	"$phongfresnelranges"	"[1 1.5 2]"

	"LightmappedGeneric_HDR_DX9"
	{
		"$envmap"	"env_cubemap"
	}

	"LightmappedGeneric_DX9"
	{
		"$envmap"	"env_cubemap"
	}
	
}