VertexLitGeneric
{
$basetexture "models/props_se/floorlamp_lobby"
$surfaceprop default
$phong 1
$phongexponent 100
$phongboost 8
$phongfresnelranges "[.3 .6 4]"
$basealphaenvmapmask 1
$basemapalphaphongmask 1
$envmap env_cubemap
$envmaptint ".9 .9 1"
}