"VertexlitGeneric"
{
	"$basetexture"					"models\props_se\furniture_nexus_desk"
	"$bumpmap"	      				"models\props_se\furniture_nexus_desk_norm"
	
	"$phong"						"1"
	"$phongexponent"				"50"
    "$phongboost"					"2.7"
	"$phongfresnelranges"			"[0.5 0.5 0.5]"
	
	"$envmap"						"env_cubemap"
	"$envmaptint"					"[0.07 0.07 0.07]"
	"$normalmapalphaenvmapmask"		"1"
	"$envmapsaturation"				"0.8"
}
