"VertexlitGeneric"
{
	"$basetexture" "models/props_se/germodoor_handle003b"
	"$bumpmap" "models/props_se/germodoor_handle003a_norm"

	"$phong" "1"
	"$phongboost" "0.09"
	"$phongfresnelranges" "[5 1 2]"
	"$phongexponent" "15"
	"$phongalbedotint" "1"
	"$phongexponenttexture" "models/props_se/germodoor_handle003a_exp"
	
	"$detail" "detail\metal_detail_01"
	"$detailscale" "6.0"
	"$detailblendfactor" .8
	"$detailblendmode" "0"
}
