VertexLitGeneric
{
	$baseTexture "models\props_se/GuardRail"
	$Envmap env_cubemap
	$EnvmapMask "models\props_se\GuardRail_ref"

	"$detail" "detail\noise_detail_01"
	"$detailscale" "8.0"
	"$detailblendfactor" .8
	"$detailblendmode" "0"
}
