"VertexLitGeneric"
{
	"$basetexture"	"models/props_se/helicopter"
"$bumpmap" "models/props_se/helicopter_normal"
"$basemapalphaphongmask" "1"	                           
"$phong" "1"
"$phongboost" "0.8"
"$halflambert" "1"
"$phongexponent" "100"							
"$phongfresnelranges"	"[.1 .5 1.0]"
}