"VertexLitGeneric"
{
	"$basetexture" "Models/props_se/hl2_combinethumper002_off"
	"$surfaceprop" "metal"
	"$envmap" "env_cubemap"
	"$envmaptint" "[ .5 .5 .5]"
	"$envmapmask" "Models/props_combine/CombineThumper002_mask"
	//"$selfillum" 1
}


