VertexLitGeneric
{
$basetexture "models\props_se\magazine_crab_games"
$phong 1
$phongexponent 8
$phongtint "[1 1 1]"
$phongboost .2
$phongfresnelranges "[0 0.5 1]"
$bumpmap "models\props_se/flat_normal"
}