"VertexlitGeneric" //gener 2311
{
	"$basetexture" "models/props_se/mulholland_box"
	"$bumpmap" "models/props_se/mulholland_box_norm"
	
	$phong 1
	"$phongexponenttexture" 
	$phongexponent   40 //чем меньше, тем блик больше
	$phongboost    2 //чем меньше, тем сила блика меньше
}
