VertexLitGeneric
{
$basetexture "Models/props_se/p2_industrial_elevator"
$bumpmap "Models/props_se/p2_industrial_elevator_normal"
$phong 1
$phongexponent 25
$phongboost 6
$phongfresnelranges "[.3 .6 4]"
"$normalmapalphaenvmapmask" 1
$envmapcontrast 1
$envmapsaturation .01
$envmaptint "[.01 .01 .01 ]"
}
