"VertexlitGeneric" //gener 2311
{
	"$basetexture" "models/props_se/redind3"
	"$selfillum" 1
	"Proxies"
		{
		"AnimatedTexture"
			{
				"animatedtexturevar" "$basetexture"
				"animatedtextureframenumvar" "$frame"
				"animatedtextureframerate" 2
			}
		}
}
