"vertexlitGeneric"
{
	"$basetexture"					"models/props_se/road_concrete_barrier_2"
	"$bumpmap"						"models/props_se/road_concrete_barrier_norm"
	
	"$phongexponent"				"0"
	"$phong"						"0"
	"$phongboost"					"0.2"
	"$phongfresnelranges"			"[1 3 5]"
	"$PhongAlbedoTint"				"1"
}