"VertexlitGeneric"
{
	"$basetexture" "models/props_se/sovok_ceil_fan_1"
	"$bumpmap" "models/props_se/sovok_ceil_fan_1_norm"
	
	$phong 1
	$phongexponent   10
    $phongboost    0.2
	$phongfresnelranges  "[0.5 0.5 0.5]"
}
