VertexLitGeneric
{
$baseTexture "models/props_se/towel_rack"
$envmap env_cubemap
$envmapmask "models/props_se\towel_rack_ref"
$envmaptint "[1 1 1]"
vertexlitgeneric_HDR_dx9
{
$envmaptint "[.7 .7 .7]"
}
}
