vertexlitgeneric
{
	$basetexture Props/acousticwall001a
	$bumpmap	 models/props_c17new/decorations/drape_banner_2a_bump
	$phong 		 1
	$phongboost  2.0
	$phongexponent 25.0
	$phongfresnelranges "[.1 .5 1]"
	
	$nocull      1
	$model		 1
	
	$detail 	 models/props_c17new/decorations/drape_banner_1a_occlusion
	$detailscale 1
	$detailblendmode 0
	$detailblendfactor 1.5
}