"VertexlitGeneric" //gener 2311
{
	"$basetexture" "concrete/concretefloor_bunker02b"
	"$surfaceprop" "concrete"

	"$detail" "detail\noise_detail_01"
	"$detailscale" "7.792"
	"$detailblendfactor" .7
	"$detailblendmode" 0

	"%keywords" "ep2"
}
