VertexLitGeneric
{
	"$baseTexture" 	"models/props_industrial/desk_console2b_dirty"
	"$bumpmap"	"models/props_industrial/desk_console2a_dirty_nm"
	"$envmap" "env_cubemap"
   	"$envmaptint" "[.1 .1 .1]"
	"$normalalphaenvmapmask" 1	
	"%keywords" "bms"

    "$model" 1

}
