VertexLitGeneric
{
	"$baseTexture" "models\props_industrial\desk_console3"
	"$bumpmap"	"models/props_industrial/desk_console1_nm"
   	"$envmaptint" "[.7 .7 .7]"
	"$envmap" 	"env_cubemap"
	"$normalmapalphaenvmapmask" 1
    "$model" 1	



}
