"VertexlitGeneric" //gener 2311
{
	"$basetexture" "building_template/building_template014e"
	"$surfaceprop"  "concrete"
	"$detail" "detail\plaster_detail_01"
	"$detailscale" "8.283"
	"$detailblendfactor" 1.2
	"$detailblendmode" "0"

	"$envmap" "env_cubemap"
	"$basealphaenvmapmask" 1
	"$envmapcontrast" 1
	"$envmapsaturation" 1
	"$envmaptint" "[ .75 .75 .75]"
	"vertexlitgeneric_dx8"
	{
		"$envmaptint" "[.25 .25 .25]"
	} 
}
