VertexLitGeneric
{
	"$basetexture" "models/props_pipes/gasworks_pipesystem02"
	"$bumpmap" "models/props_pipes/gasworks_pipesystem02_normal"
	"$envmap" "env_cubemap"
	"$normalmapalphaenvmapmask" "1"
	"$envmapcontrast" "1.0"
	"$envmapsaturation" "1.0"
	"$envmaptint" "[ 1.1 1.1 1.1 ]"	
	"$multipass" "1"
	//"$phong" "1"
	//"$phongexponent"	"5"		
		
	//"$phongboost"		"1.0"
	//"$phongfresnelranges"	"[0 0.5 1]"

	//"$rimlight"               "1"
	//"$rimlightexponent"       "2"
	//"$rimlightboost"          "0.2"		
    "$model" 1

}
