"VertexlitGeneric" //gener 2311
{
	"$basetexture" "models/props_se/propper/escalator/escalator_part_2b"
	"$bumpmap" "models/props_se/propper/escalator/escalator_part_2_norm"
	$phong 1
	$phongexponent   40
	$phongboost    2
	$phongfresnelranges  "[0.5 0.5 0.5]"
}
