"VertexlitGeneric" //gener 2311
{
	"$basetexture" "wood/woodfloor005a"
	"$surfaceprop" "wood"
	"%keywords" "c17skyscraper"
	"$bumpmap" "wood/woodfloor005a_normal"
	"$parallaxmap" "wood/woodfloor005a_height"
	"$parallaxmapscale" ".02"
}
