VertexLitGeneric
{
	"$baseTexture" "models\z-o-m-b-i-e/aim_Z_agroprom/6be897b4"
	"$bumpmap" "models\z-o-m-b-i-e/aim_Z_agroprom/6be897b4_norm"
	"$detail" "detail\wood_detail_01"
	"$detailscale" "2.563"
	"$detailblendfactor" ".8"
	"$detailblendmode" "0"
}
