VertexLitGeneric
{
	"$baseTexture" "models\z-o-m-b-i-e/aim_Z_agroprom/820d0e3b"
	"$bumpmap" "models\z-o-m-b-i-e/aim_Z_agroprom/820d0e3b_norm"
	"$detail" "detail\noise_detail_01" 
	"$detailscale" "7.74"
	"$detailblendfactor" "0.8"
	"$detailblendmode" "0"
}
