LightmappedGeneric
{
	"$baseTexture" "z-o-m-b-i-e/STALKER/gr/gr_31"
	"$bumpmap" "z-o-m-b-i-e/STALKER/gr/gr_31_norm"
	"$surfaceprop" "metal"
	"$detail" "z-o-m-b-i-e/STALKER/detail/detail_metal_det2"
	"$detailscale" "6.00"
	"$detailblendfactor" "1.0"
	"$detailblendmode" "0"
}
