"VertexLitGeneric"
{
	"$baseTexture" "z-o-m-b-i-e/metro_2033/stucco/stucco_stucaturka_d"
	"$bumpmap" "z-o-m-b-i-e/metro_2033/stucco/stucco_stucaturka_d_norm"
	"$surfaceprop" "concrete"
	"$detail" "z-o-m-b-i-e/STALKER/detail/detail_tile_det2"
	"$detailscale" "6.00"
	"$detailblendfactor" "1.0"
	"$detailblendmode" "0"
}

	