"VertexlitGeneric"
{
	"$basetexture" "models/mus/metro/narva/narva_wall_lamp"
	"$bumpmap" "models/mus/metro/narva/narva_wall_lamp_norm"
	//$selfillum 1
		$phong 1
	$phongexponent   40
	$phongboost    2
	$phongfresnelranges  "[0.5 0.5 0.5]"
}
