
VertexLitGeneric
{
	// Original shader: VertexLitTexture
	"$basetexture" "Models/props_junk/old/cinderblock01a"
	//"$envmap" "env_cubemap"
	//"$basealphaenvmapmask" 1
	"$surfaceprop" "concrete"
	
}

