"VertexlitGeneric" //gener 2311
{
	"$basetexture" "models/props_se/vertigo/molding02"
	"$detail" "detail\metal_paint_detail"
	"$detailscale" "2.00"
	"$detailblendfactor" 1.2
	"$detailblendmode" "0"
}
