"VertexlitGeneric" //gener 2311
{
	"$basetexture" "models/props_se/junk/aperture_metalbox_3"
	"$bumpmap" "models/props_se/junk/metalbox_norm"
	$phong 1
	$phongexponent   2
	$phongboost    0.5
	$phongfresnelranges  "[0.8 0.8 0.8]"
}
