"VertexlitGeneric"
{
	"$basetexture" "models/props_se/junk/kitchen_container_1"
	"$bumpmap" "models/props_se/junk/kitchen_container_norm"
	$phong 1
	$phongexponent   15
	$phongboost    1
	$phongfresnelranges  "[0.5 0.5 0.5]"
}
