LightmappedGeneric
{
	// Didn't exist in the leak; made just to have a full set of opaque and transparent glasswindow033
	"$basetexture" "Glass/glasswindow033b_opaque_old"
	"$surfaceprop" "glass"
	"%keywords" "c17industrial"
}
