LightmappedGeneric
{
	// Original shader: CubicEnvMapBlendMaskedBaseTimesLightmap
	"$basealphaenvmapmask" 1
	"$basetexture" "glass/glasswindow072a"
	"$envmap" "env_cubemap"
	"$surfaceprop" "glass"
	"%keywords" "c17skyscraper"
}
