LightmappedGeneric
{
	"$basetexture" "Glass/glasswindow012a"
	"$surfaceprop" "glass"
	"%keywords" "c17skyscraper"
	"$envmap" "env_cubemap"
	"$basealphaenvmapmask" 1
	"$envmapcontrast" 1
	"$envmapsaturation" 1
	"$envmaptint" "[ .5 .5 .5]"
}
