LightmappedGeneric
{
	// Original shader: BaseTimesLightmapAlphaBlend
	"$translucent" 1
	"$basetexture" "glass/glasswindow053c"
	"$surfaceprop" "glass"
	"%keywords" "c17downtown,c17industrial,wasteland"
}
