"vertexlitgeneric"
{
	"$basetexture"       "models/props_foliage/cliff_rock001_color.vtf"
	//"$bumpmap"           "models/props_foliage/cliff_rock001_normal.vtf"
	"$detail"            "detail/detail_rock001"
	"$detailscale" "10.0"
	"$detailblendfactor" "0.85"
	"$detailblendmode"   "0"
}