"vertexlitgeneric"
{
	"$basetexture"       "models/props_foliage/cliff_wall004_color.vtf"
	//"$bumpmap"           "models/props_foliage/cliff_wall004_normal.vtf"
	"$surfaceprop"       "rock"
	"$detail"            "detail/detail_rock001"
	"$detailscale" "10.0"
	"$detailblendfactor" "0.85"
	"$detailblendmode"   "0"
}