VertexlitGeneric
{
$baseTexture "models\props_foliage\tree_deciduous_01a_branches"
$translucent 1



$nocull 1
$model 1
$FlashlightNoLambert 1
	//next code i copy-paste from gamebanana.com/tuts/12924 (fantastic idea, +rep for autor)
	"$translate" "[0 0]"

	"Proxies"
	{
		Sine
		{
			sineperiod	4
			sinemin		0
			sinemax		0.005
			timeoffset	2
			resultVar	"$translate[0]"
		}
		Sine
		{
			sineperiod	6
			sinemin		0
			sinemax		0.005
			timeoffset	0
			resultVar	"$translate[1]"
		}
		
		TextureTransform
			{
			translateVar	$translate
			resultVar	$basetexturetransform
			}
	}
}