VertexLitGeneric
{
//include"materials/models/props_foliage/vines_swaying_verysubtle01.vmt"
//insert

$basetexture "models\props_foliage\vines_clusters_hanging_dry01"



$translucent 1
$nocull 1
$model 1
"%keywords" portal2

	//next code i copy-paste from gamebanana.com/tuts/12924 (fantastic idea, +rep for autor)
	"$translate" "[0 0]"

//	"Proxies"
//	{
//		Sine
//		{
//			sineperiod	4
//			sinemin		0
//			sinemax		0.005
//			timeoffset	2
//			resultVar	"$translate[0]"
//		}
//		Sine
//		{
//			sineperiod	6
//			sinemin		0
//			sinemax		0.005
//			timeoffset	0
//			resultVar	"$translate[1]"
//		}
//		
//		TextureTransform
//			{
//			translateVar	$translate
//			resultVar	$basetexturetransform
//			}
//	}
}