"VertexLitGeneric"
{
	"$baseTexture" "z-o-m-b-i-e/metro_2033/props/props_ochky"
	"$bumpmap" "z-o-m-b-i-e/metro_2033/props/props_ochky_norm"
	"$surfaceprop" "plastic"
	"$nocull" 1
	"$nodecal" "1"
	"$translucent" "1"
}
