"VertexLitGeneric"
{
	"$baseTexture" "z-o-m-b-i-e/metro_2033/props/props_t_gas_can"
	//"//$bumpmap" "z-o-m-b-i-e/metro_2033/props/props_t_gas_can_norm"
	"$surfaceprop" "metal"
	"$detail" "z-o-m-b-i-e/STALKER/detail/detail_metall_det1"
	"$detailscale" "6.00"
	"$detailblendfactor" "1.0"
	"$detailblendmode" "0"
}
