"VertexlitGeneric" //gener 2311
{
	"$basetexture" "models/props_se/propper/tram/tram_5a"
			"$bumpmap" "models/props_se/propper/tram/tram_5_norm"
		$phong 1
	$phongexponent   8.5
	$phongboost    0.7
	$phongfresnelranges  "[0.8 0.8 0.8]"
}
