"VertexlitGeneric" //gener 2311
{
	"$basetexture" "models/props_se/propper/tram/tram_5"
			"$bumpmap" "models/props_se/propper/tram/tram_5_norm"
		$phong 1
	$phongexponent   30.0
	$phongboost    0.2
	$phongfresnelranges  "[0.8 0.8 0.8]"
}
