VertexLitGeneric
{
	"$baseTexture" "models\vanderagsn\MjolnirSDK\autocombines\trees\trees_bark_sosna_01"
	"$surfaceprop" "wood"
	"$detailscale" "3.00"
	"$detailblendfactor" "0.8"
	"$detailblendmode" "0"
}
