VertexLitGeneric
{
$baseTexture "models\props_a72/soviet_desk_lamp_03_skin03"

$bumpmap "models/props_a72/soviet_desk_lamp_03_n"


"$phong" "1"

"$phongexponenttexture" "models/props_a72/soviet_desk_lamp_03_exponent"
"$phongboost"	"6"
"$phongfresnelranges"	"[0.05 0.5 1]"

"$envmap" "env_cubemap"
"$envmaptint" "[1 1 1]"
"$normalmapalphaenvmapmask" "1"
	
//$detail detail\metal_detail_01
//$detailscale 20.05
//$detailblendfactor 0.1
//$detailblendmode 0

//$blendtintbybasealpha 1
//$normalmapalphaenvmapmask 1
//$phong 1
//$phongexponent 80
//$envmaptint "[.1 .1 .1 ]"
//$envmapcontrast 1
//$phongboost 1
//$phongfresnelranges "[5 1 2]"
//$halflambert 1
//$envmaplightscale .6
//$envmap env_cubemap
}
