LightmappedGeneric
{
	"$basetexture"	"concrete/bts_concretewall002b"
	"$surfaceprop" 	"concrete"
	"%keywords" 	"sgf_portal"

        	"$detail" 		"detail\detail_portal_concrete01"
	"$detailscale" 	"4.25"
	"$detailblendfactor" 0.35
	"$detailblendmode" 0

	"$bumpmap" 	"concrete/bts_concretewall002_ssbump"
	"$ssbump" 	1
}
