LightmappedGeneric
{
	"$basetexture" "Concrete/concretewall017a_2023"
	"$surfaceprop" "concrete"
	"%keywords" "c17sewers"

	"$detail" "detail\noise_detail_01"
	"$detailscale" "7.345"
	"$detailblendfactor" .6
	"$detailblendmode" 0
}
