LightmappedGeneric
{
	"$basetexture" "Concrete/concretewall024c"
	"$surfaceprop" "concrete"
	"%keywords" "c17industrial"

	"$bumpmap" "Concrete/concretewall024c_normal"
	"$envmap" "env_cubemap"
	"$normalmapalphaenvmapmask" 1
	"$envmapcontrast" 1
	"$envmapsaturation" 1
	"$envmaptint" "[ .75 .75 .75]"

	"$detail" "detail\noise_detail_01"
	"$detailscale" "7.345"
	"$detailblendfactor" .6
	"$detailblendmode" 0
}
