LightmappedGeneric
{
	"$basetexture" "Concrete/concretewall026d_old"
	"$surfaceprop" "concrete"
	"%keywords" "c17downtown"
	"$bumpmap" "concrete/concretewall026d_old_normal"
	"$normalmapalphaenvmapmask" 1
	"$envmapcontrast" 1
	"$envmapsaturation" 1
	"$envmaptint" "[ .9 .9 .9]"
	"$envmap" "env_cubemap"
}
