LightmappedGeneric
{
	"$basetexture" "concrete\concretefloor033m"
	"$surfaceprop" "concrete"
	"%keywords" "c17downtown"
	"$envmap" "env_cubemap"
	"$bumpmap" "concrete\concretefloor033m_normal"
	"$envmapsaturation" 1
	"$envmapcontrast" 1
	"$envmaptint" "[ .5 .5 .5]"
}
