LightmappedGeneric
{
	// Original shader: BaseTimesLightmap
	"$basetexture" "Concrete/concretewall013j"
	"$surfaceprop" "concrete"
	"%keywords" "c17downtown"

	"$detail" "detail\noise_detail_01"
	"$detailscale" "7.345"
	"$detailblendfactor" .6
	"$detailblendmode" 0

	"$envmap" "env_cubemap"
	"$basealphaenvmapmask" 1
	"$envmapcontrast" 1
	"$envmapsaturation" 1
	"$envmaptint" "[ .75 .75 .75]"
}
