"LightmappedGeneric"
{
	"$detail" "detail\noise_detail_01"
	"$detailscale" "7.792"
	"$detailblendfactor" .65
	"$detailblendmode" 0

	"$basetexture" "concrete/ol_concretewall018a"
	"$bumpmap" "concrete/ol_concretewall018a_normal"
	"$surfaceprop" "Concrete"
	"%keywords" "Other-Life"
}
