LightmappedGeneric
{
	"$detail" "detail\noise_detail_01"
	"$detailscale" "7.74"
	"$detailblendfactor" "0.8"
	"$detailblendmode" "0"

	"$basetexture" "concrete/ol_concretewall016a"
	"$bumpmap" "concrete/ol_concretewall016_normal"
	"$surfaceprop" "concrete"

	"%keywords" "other-life"
}
