
"VertexLitGeneric"
{
	// Original shader: VertexLitTexture
	"$basetexture" "Models/props_se\cabinet/controlroom_filecabinets001c"
	"$surfaceprop" "metal"
	"$envmap" "env_cubemap"
	"$basealphaenvmapmask" 1
	
}
