"VertexlitGeneric"
{
	"$basetexture" "models/props_se/cabinet/parts_bin_3"
	"$bumpmap" "models/props_se/cabinet/parts_bin_norm"
	$phong 1
	$phongexponent   40
	$phongboost    2
	$phongfresnelranges  "[0.5 0.5 0.5]"
}
