VertexLitGeneric
{
	"$baseTexture" "z-o-m-b-i-e/STALKER/wood/wood_dosk_gr01"
	"$bumpmap" "z-o-m-b-i-e/STALKER/wood/wood_dosk_gr01_norm"
	"$surfaceprop" "wood"
	"$detail" "z-o-m-b-i-e/STALKER/detail/detail_wood_det2"
	"$detailscale" "6.00"
	"$detailblendfactor" "0.4"
	"$detailblendmode" "0"
}
	
