"VertexlitGeneric"
{
$baseTexture "models/props_se/zaz968/car_glass_03"
$translucent 1
$envmap env_cubemap
$envmapmask "models/props_se/zaz968/car_glass_03_ref"
$envmaptint "[1 1 1]"
$nocull 1
$model 1
}