"VertexlitGeneric"
{
	"$basetexture"				"models/props_se/aperture/aperture_server_2"
	"$bumpmap"					"models/props_se/aperture/aperture_server_2_norm"
	
	"$phong"					"1"
	"$phongexponent"			"50"
    "$phongboost"				"1.2"
	"$phongfresnelranges"		"[1 1.5 2]"
	
	"$selfillum"				"1"
	"$selfillummask"			"models/props_se/aperture/aperture_server_2_illum"
	
	"Proxies"
		{
		"Sine"
			{
				"sineperiod" "2.5"
				"sinemin" ".8"
				"sinemax" "1"
				"resultVar" "$selfillumtint[0]"
			}
		"Sine"
			{
				"sineperiod" "2.5"
				"sinemin" ".2"
				"sinemax" "1"
				"resultVar" "$selfillumtint[1]"
			}
		"Sine"
			{
				"sineperiod" "2.5"
				"sinemin" ".2"
				"sinemax" "1"
				"resultVar" "$selfillumtint[2]"
			}
		}
}