"VertexlitGeneric"
{
	"$basetexture"	"models/props_se/ikarus256/rusted/ikar_interior_2"
	
	"$bumpmap"		"models/props_se/ikarus256/ikar_interior_2_norm"
	
	//"$envmap"						"env_cubemap"
	//"$normalmapalphaenvmapmask"		"1"
    //"$envmaptint"					"[0.10 0.10 0.10]"
    //"$envmapcontrast"				"1"

	//"$multipass" 0

	"$phong" "1"
	"$phongexponent" "5"
	"$phongboost" "0.05"
	"$phongfresnelranges"	"[0.4 0.9 2.6]"
	"$phongalbedotint" "1"
}