LightmappedGeneric
{
	"$baseTexture" "z-o-m-b-i-e/STALKER/item/item_notes"
	"$bumpmap" "z-o-m-b-i-e/STALKER/item/item_notes_norm"
	"$surfaceprop" "paper"
	"$envmap" "env_cubemap"
	"$normalmapalphaenvmapmask" 1
	"$envmapsaturation" 1
	"$envmapcontrast" 1
	"$envmaptint" "[ 0.2 0.2 0.2 ]" //"[ .25 .25 .25 ]"
	"HDR" { "$envmaptint" "[0,05 0,05 0,05]" }
}
	
