"vertexlitgeneric"
{
	"$basetexture" "glass/glasswindow048a"
	"$basealphaenvmapmask" 1
	"$envmap" "env_cubemap"
	"$surfaceprop" "glass"
	"%keywords" "c17industrial"
	"$envmaptint" "[.75 .75 .75]"
	"$envmapcontrast" 1
	"$envmapsaturation" 1
}
