"vertexlitgeneric"
{
	"$basetexture" "metal/metalgrate011a"
	"%compilepassbullets" 1
	"$surfaceprop" "metalgrate"
	"%keywords" "c17industrial,kraken"

	"$alphatest" "1"
	"$alphatestreference" "0.3"
}
