"WorldVertexTransition"
{
	"$baseTexture" "z-o-m-b-i-e\STALKER\detail/detail_bitum_det2"
	"$basetexturetransform"		"center 2.0645 2.0645 scale 32 32 rotate 0 translate 0 0"
	"$baseTexture2" "z-o-m-b-i-e/stalker/grnd/grnd_shlak_01"
	"$surfaceprop" "mud"
	"$detail"		"zaton/zaton_terrain_expos"
	"$detailscale"		"0.0078125"
	"$detailblendmode"		"0"
	"$surfaceprop2" "dirt"
	
			//"%detailtype" "grass01"
			
// Created with MjolnirSDK Toolkit by USERID:3454
}