"unlitgeneric"
{
	"$baseTexture" "sand/powerbox_auto_turnoff"
	"$surfaceprop" "glass"
	"$frame" 0

	"Proxies" 
	{
		"ToggleTexture"
		{
			"toggleTextureVar" "$baseTexture"
			"toggleTextureFrameNumVar" "$frame"
			"toggleTextureShouldWrap" "0"
		} 	
	} 
}