"VertexLitGeneric"
{
	"$baseTexture" "z-o-m-b-i-e/metro_2033/wall/wall_l17_church_01"
	"$bumpmap" "z-o-m-b-i-e/metro_2033/wall/wall_l17_church_01_norm"
	"$surfaceprop" "concrete"
	"$detail" "z-o-m-b-i-e/metro_2033/det/det_concrete_2"
	"$detailscale" "9.00"
	"$detailblendfactor" "1.0"
	"$detailblendmode" "0"
}
	