"VertexLitGeneric"
{
	"$baseTexture" "z-o-m-b-i-e/metro_2033/wall/wall_potek_snow"
	"$bumpmap" "z-o-m-b-i-e/metro_2033/wall/wall_potek_snow_norm"
	"$surfaceprop" "concrete"
	"$detail" "z-o-m-b-i-e/metro_2033/det/det_concrete_2"
	"$detailscale" "6.00"
	"$detailblendfactor" "1.0"
	"$detailblendmode" "0"
}
