"LightMappedGeneric"
{
	"$baseTexture" "z-o-m-b-i-e/metro_2033/background/background_panorama"
	"$bumpmap" "z-o-m-b-i-e/metro_2033/background/background_panorama_norm"
	"$surfaceprop" "concrete"
	"$nocull" 1
	"$nodecal" "1"
	"$translucent" "1"
}
	