LightmappedGeneric
{
	"$basetexture" "highdef/metro2033/metal/metal_list_k"
	"$bumpmap" "highdef/metro2033/metal/metal_list_k_ssbump"
	"$ssbump" "1"
	"$normalmapalphaenvmapmask" "1"
	"$envmaptint" "[.1 .1 .1]"
	"$envmap" "env_cubemap"
	"$surfaceprop" "Metal"
	"%keywords" "metro"
}
