"vertexlitgeneric"
{
 "$basetexture" "models/mus/metro/station_firebox_1_ref"
 "$bumpmap" "models/mus/metro/station_firebox_1_norm"
  $phong 1
  $phongexponent   20
  $phongboost    0.5
  $phongfresnelranges  "[0.5 0.5 0.5]"

}