vertexlitgeneric
{
	"$basetexture"                     "models\props_se\foliage\se_trees_textures\Leaves3"
	"$alphatest"                       1
	"$alphatestreference"              ".3"
	"$nocull"                          1
	"$model"                           1
	"$surfaceprop"                     "wood"
	
	"$translate" "[0 0]"

	"Proxies"
	{
		Sine
		{
			sineperiod	4
			sinemin		0
			sinemax		0.005
			timeoffset	2
			resultVar	"$translate[0]"
		}
		Sine
		{
			sineperiod	6
			sinemin		0
			sinemax		0.005
			timeoffset	0
			resultVar	"$translate[1]"
		}
		
		TextureTransform
			{
			translateVar	$translate
			resultVar	$basetexturetransform
			}
	}
}
