LightmappedGeneric
{
	"$baseTexture" "z-o-m-b-i-e/STALKER/prop/prop_plitka_lab_br"
	"$bumpmap" "z-o-m-b-i-e/STALKER/prop/prop_plitka_lab_br_norm"
	"$surfaceprop" "tile"
	"$detail" "z-o-m-b-i-e/STALKER/detail/detail_tile_det2"
	"$detailscale" "6.00"
	"$detailblendfactor" "1.0"
	"$detailblendmode" "0"
}
	
