LightmappedGeneric
{
	"$baseTexture" "z-o-m-b-i-e/STALKER/prop/prop_voda1"
	"$bumpmap" "z-o-m-b-i-e/STALKER/prop/prop_voda1_norm"
	"$nocull" 1
	"$nodecal" "1"
	"$translucent" "1"
	"$surfaceprop" "glass"
}
	
