"VertexLitGeneric"
{
	"$baseTexture" "z-o-m-b-i-e/STALKER/mtl/mtl_floor_plate_02"
	//"$uvmap" "z-o-m-b-i-e/STALKER/mtl/mtl_floor_plate_02_uvmap.pypv"
	"$surfaceprop" "metal"
	"$detail" "z-o-m-b-i-e/STALKER/detail/detail_metall_det1"
	"$detailscale" "6.00"
	"$detailblendfactor" "1.0"
	"$detailblendmode" "0"
}