"VertexLitGeneric"
{
	"$baseTexture" "z-o-m-b-i-e/STALKER/mtl/mtl_fence_01"
	//"$uvmap" "z-o-m-b-i-e/STALKER/mtl/mtl_fence_01_uvmap.pypv"
	"$surfaceprop" "metalgrate"
	"$nodecal" "1"
	"$alphatest" "1"
	"$nocull"		"1"
}
