"VertexLitGeneric"
{
	"$baseTexture" "z-o-m-b-i-e/STALKER/mtl/mtl_reshetka_pot_01"
	//"$uvmap" "z-o-m-b-i-e/STALKER/mtl/mtl_reshetka_pot_01_uvmap.pypv"
	"$surfaceprop" "metal"
	"$nodecal" "1"
	"$alphatest" "1"
	"$alphatestreference" "0.05"
	"$nocull" "1"
}
