VertexLitGeneric
{
	"$basetexture" "Models/props_citizen_tech/Steam_Engine001"
	"$surfaceprop" "metal"
	"$envmap" "env_cubemap"
	"$envmaptint" "[.1 .1 .1]"
	//"$envmapsphere" 1
	"$basealphaenvmapmask" 1
}
