LightmappedGeneric
{
	// Original shader: BaseTimesLightmap
	"$basetexture" "Wood/woodceilingl002a"
	"$surfaceprop" "wood"
	"%keywords" "c17downtown,c17skyscraper"
	"$bumpmap" "wood/woodceilingl002a_normal"
}
