LightmappedGeneric
{
	// Original shader: BaseTimesLightmapAlphaBlend
	"$translucent" 1
	"$basetexture" "Wood/woodtrack001b"
	"$surfaceprop" "wood"
	"%keywords" "c17industrial,c17trainstation,wasteland"
}
