LightmappedGeneric
{
	"$baseTexture" "z-o-m-b-i-e/STALKER/wall/wall_stena_01"
	"$bumpmap" "z-o-m-b-i-e/STALKER/wall/wall_stena_01_norm"
	"$surfaceprop" "concrete"
	"$detail" "z-o-m-b-i-e/STALKER/detail/detail_beton_det4"
	"$detailscale" "6.00"
	"$detailblendfactor" "1.0"
	"$detailblendmode" "0"
	"$envmap" "env_cubemap"
	"$normalmapalphaenvmapmask" 1
	"$envmapsaturation" 1
	"$envmapcontrast" 1
	"$envmaptint" "[ 0.2 0.2 0.2 ]" //"[ .25 .25 .25 ]"
	"HDR" { "$envmaptint" "[0,05 0,05 0,05]" }
}
