LightmappedGeneric
{
	"$baseTexture" "z-o-m-b-i-e/STALKER/door/door_white_02"
	"$bumpmap" "z-o-m-b-i-e/STALKER/door/door_white_02_norm"
	"$surfaceprop" "wood"
	"$detail" "z-o-m-b-i-e/STALKER/detail/detail_wood_det2"
	"$detailscale" "6.00"
	"$detailblendfactor" "0.4"
	"$detailblendmode" "0"
}
