LightmappedGeneric
{
	"$baseTexture" "z-o-m-b-i-e/STALKER/door/door_gate_metal_01"
	"$bumpmap" "z-o-m-b-i-e/STALKER/door/door_gate_metal_01_norm"
	"$surfaceprop" "metal"
	"$detail" "z-o-m-b-i-e/STALKER/detail/detail_metall_det1"
	"$detailscale" "6.00"
	"$detailblendfactor" "1.0"
	"$detailblendmode" "0"
	"$envmap" "env_cubemap"
	"$normalmapalphaenvmapmask" 1
	"$envmapsaturation" 1
	"$envmapcontrast" 1
	"$envmaptint" "[ 0.2 0.2 0.2 ]" //"[ .25 .25 .25 ]"
	"HDR" { "$envmaptint" "0.13 0.13 0.13" }
}	
