"LightMappedGeneric"
{
	"$baseTexture" "z-o-m-b-i-e/metro_2033/floor/floor_ruberoid"
	"$bumpmap" "z-o-m-b-i-e/metro_2033/floor/floor_ruberoid_norm"
	"$surfaceprop" "concrete"
	"$detail" "z-o-m-b-i-e/metro_2033/det/det_grnd_sand"
	"$detailscale" "6.00"
	"$detailblendfactor" "1.0"
	"$detailblendmode" "0"
}
