LightmappedGeneric
{
	"$basetexture" "nature/mudfloor001c_old"
	"$bumpmap" "Nature/mudfloor001c_old_normal"
	"$surfaceprop" "dirt"
	"%keywords" "wasteland"
	"$normalmapalphaenvmapmask" 1
	"$envmapcontrast" 1
	"$envmapsaturation" 1
	"$envmaptint" "[ .5 .5 .5]"
	"$envmap" "env_cubemap"
}
