"WorldVertexTransition"
{
	"$basetexture" "nature/forest_gravel_01"
	"$baseTexture2" "se_concrete/rubberroof002a"
	"$surfaceprop" "dirt"
	"$surfaceprop2" "dirt"
	"$blendmodulatetexture" "nature/blendtexture01"
	//"%detailtype" "redgrass_alt"
	

}
