"LightMappedGeneric"
{
	"$baseTexture" "z-o-m-b-i-e/metro_2033/veh/veh_car_b"
	"$bumpmap" "z-o-m-b-i-e/metro_2033/veh/veh_car_b_norm"
	"$surfaceprop" "metal"
	"$detail" "z-o-m-b-i-e/STALKER/detail/detail_metall_det1"
	"$detailscale" "9.00"
	"$detailblendfactor" "1.0"
	"$detailblendmode" "0"
}
