VertexLitGeneric
{
	$basetexture "models/props_canals_new/refinery01_uvw"
	$bumpmap "models/props_canals_new/refinery01_n"

	$alphatest 1

	$envmap "env_cubemap"
	$normalmapalphaenvmapmask 1

	$phong 1
	$phongfresnelranges "[0.5 4.75 5]"
	$phongtint "[0.67 0.73 0.80]"
	$phongexponent 2
	$phongboost 1.4
	
	$nocull 1
		
	"$detail" "detail\noise_detail_01"
	"$detailscale" 45
	"$detailblendfactor" .6
	"$detailblendmode" 0
}