"VertexlitGeneric"
{
	"$basetexture"				"models/props/128_fuse_set10/128_fuse_set10_b"
	"$bumpmap"					"models/props/128_fuse_set10/128_fuse_set10_norm"
	
	"$phong"					"1"
	"$phongexponent"			"10"
    "$phongboost"				"0.2"
	"$phongfresnelranges"		"[0.5 0.5 0.5]"
	
	"$detail" "detail\sp_detail_metal"
	"$detailscale" "6.0"
	"$detailblendfactor" 1.3
	"$detailblendmode" ".3"

}