"VertexlitGeneric" //gener 2311
{
	"$basetexture" "models/props_se/train/mus_railway_details"
	
	"$detail" "detail\noise_detail_01"
	"$detailscale" "8.0"
	"$detailblendfactor" .8
	"$detailblendmode" "0"
}
