"VertexlitGeneric"
{
	"$basetexture" "models/props_se/train/r_wheels_1"
	"$bumpmap" "models/props_se/train/r_wheels_1_norm"
	
	$phong 1
	$phongexponent   10
    $phongboost    0.2
	$phongfresnelranges  "[0.4 0.4 0.4]"
	
	"$detail" "detail\noise_detail_01"
	"$detailscale" "6.5"
	"$detailblendfactor" 1.0
	"$detailblendmode" "0"
}
