"VertexlitGeneric" //gener 2311
{
	"$basetexture" "models/props_se/train/train_boxcar12"
	"$detail" "detail\metal_detail_01"
	"$detailscale" "12.0"
	"$detailblendfactor" .5
	"$detailblendmode" "0"
	
}
