Refract
{
$model 1
$refractamount ".07"
$bluramount ".3"
$refracttinttexture "models/props_se/cargo_airplane/cargo_airplane_turret_glass03"
$scale "[1 1]"
$dudvmap "models\props_se/cargo_airplane\cargo_airplane_turret_glass03_norm"
$normalmap "models\props_se/cargo_airplane\cargo_airplane_turret_glass03_norm"
$surfaceprop glass
$translucent 1
}
