"VertexlitGeneric"
{
$baseTexture "models/props_se/cargo_airplane/cargo_airplane_turret_glass01"
$translucent 1
//$envmap env_cubemap
//$envmapmask "models/props_se/cargo_airplane/car_glass_01_ref"
//$envmaptint "[.2 .2 .2]"
//$nocull 1
$model 1
}