"VertexlitGeneric"
{
	"$basetexture" "models/props_se/puzzle/puzzle_pwoerbox_1"
	
	"$envmap" "env_cubemap"
	"$envmapmask" "models/props_se/puzzle/puzzle_pwoerbox_1_env"
	"$envmapsaturation" "0.1"
	"$envmaptint" "[ .6 .6 .6 ]"
}
