"VertexlitGeneric"
{
	"$basetexture" "models/props_se/puzzle/puzzle_10light_07"
	"$selfillum" "1"
	"$bumpmap" "models/props_se/puzzle/puzzle_10light_normal"
	"$envmap" "env_cubemap"
	"$envmaptint" "[ .9 .9 .9 ]"
	$normalmapalphaenvmapmask 1
}
