"LightmappedGeneric"
{
	"$basetexture" 			"se_plaster/out_nexus_plaster_003"
	//"$bumpmap"				"se_plaster/out_nexus_plaster_003_norm"
	"$surfaceprop"  		"concrete"
	"$detail" 				"detail\plaster_detail_01"
	"$detailscale" 			"8.283"
	"$detailblendfactor"	"1.2"
	"$detailblendmode" 		"0"

}
