"LightmappedGeneric"
{
	"$basetexture" "se_building\type_4/brickwall045a"
	"$surfaceprop" "brick"

	"$detail" "detail\noise_detail_01"
	"$detailscale" "7.740"
	"$detailblendfactor" .8
	"$detailblendmode" 0
	"%keywords" "c17downtown,wasteland"
}
