LightmappedGeneric
{
	"$basetexture" "metal/bts_metalwall003b_gradientwhite"
	"$selfillum" 1
	"$surfaceprop" "metal" 
	"%keywords" "portal"
	"%noportal" 1
	"$reflectivity" "[ .35 .30 .27 ]" //this is a artificial radiosity boost
}
