// envmaptint_fix
"LightmappedGeneric"
{
	"$basetexture" "Metal/cube_metalpanel001d"
	"%keywords" "cube"
	"$surfaceprop" "metal"
	"$envmaptint" "[ .10 .05 .05 ]"
	"$envmap" "env_cubemap"

	"%noportal" 1

	"$bumpmap" "Metal/cube_metalpanel001_normal"
	"$normalmapalphaenvmapmask" 1
}

