LightmappedGeneric
{
	// Original shader: BaseTimesLightmapAlphaBlend
	"$translucent" 1
	"$basetexture" "Metal/metalrail008a"
	"%compilepassbullets" 1
	"$surfaceprop" "metal"
	"%keywords" "c17skyscraper"
}
