LightmappedGeneric
{
	"$basetexture" "Metal/metalwall022a_2023"
	"$surfaceprop" "metal"
	"%keywords" "c17industrial,wasteland"

	"$detail" "detail\metal_detail_01"
	"$detailscale" "4.283"
	"$detailblendfactor" .8
	"$detailblendmode" "0"
}
