LightmappedGeneric
{
	"$basetexture" "Metal/metalwall015f"
	"$surfaceprop" "metal"
	"%keywords" "c17industrial,wasteland"
	"$bumpmap" "Metal/metalwall015f_normal"

	"$detail" "detail\metal_detail_01"
	"$detailscale" "4.283"
	"$detailblendfactor" .8
	"$detailblendmode" "0"
}
