LightmappedGeneric
{
	"$basetexture" "Metal/metalwall004h"
	"$surfaceprop" "metal"
	"%keywords" "c17industrial,wasteland"
	"$bumpmap" "Metal/metalwall004h_normal"

	"$detail" "detail\metal_detail_01"
	"$detailscale" "4.283"
	"$detailblendfactor" .8
	"$detailblendmode" "0"

	"$envmap" "env_cubemap"
	"$normalmapalphaenvmapmask" 1
	"$envmapcontrast" 1
	"$envmapsaturation" 1
	"$envmaptint" "[ .5 .5 .5]"
}
