LightmappedGeneric
{
	// Original shader: BaseTimesLightmapAlphaBlend
	"$translucent" 1
	"$basetexture" "Metal/metalwall061c"
	"%compilepassbullets" 1
	"$surfaceprop" "metal"
	"%keywords" "airexchange,combine"
}
