LightmappedGeneric
{
	// Original shader: BaseTimesLightmapAlphaBlend
	"$translucent" 1
	"$basetexture" "Metal/metalrail005c_old"
	"%compilepassbullets" 1
	"$surfaceprop" "metal"
	"%keywords" "airexchange,c17industrial"
}
