LightmappedGeneric
{
	"$basetexture" "Metal/metaldoor039a"
	"$surfaceprop" "metal"
	"%keywords" "c17industrial"
	//"$envmap" "env_cubemap"
	//"$basealphaenvmapmask" 1
	//"$envmaptint" "[ 0.5 0.5 0.5 ]"
}
