LightmappedGeneric
{
	// Original shader: SphericalEnvMapBlendMaskedBaseTimesLightmap
	"$envmapsphere" 1
	"$basealphaenvmapmask" 1
	"$basetexture" "Metal/metalwall051a"
	"$envmap" env_cubemap
	"$surfaceprop" "metal"
	"%keywords" "c17industrial"
}
