LightmappedGeneric
{
	"$basetexture" "Metal/metalwall079a"
	"$surfaceprop" "metal"
	"%keywords" "c17industrial,wasteland"
	"$bumpmap"	"Metal/metalwall079a_normal"

	"$detail" "detail\metal_detail_01"
	"$detailscale" "4.283"
	"$detailblendfactor" .8
	"$detailblendmode" "0"
}
