LightmappedGeneric
{
	// Original shader: BaseTimesLightmapAlphaBlend
	"$translucent" 1
	"$basetexture" "Metal/metalgrate014b"
	"%compilepassbullets" 1
	"$surfaceprop" "metalgrate"
	"%keywords" "airexchange,c17industrial,combine,wasteland"
}
