LightmappedGeneric
{
	"$baseTexture" "z-o-m-b-i-e/STALKER/crete_floor4a"
	"$bumpmap" "z-o-m-b-i-e/STALKER/crete_floor4a_norm"
	"$detail" "Z-O-M-B-I-E\detail\detail_beton_det1"
	"$detailscale" "5.00"
	"$detailblendfactor" "0.8"
	"$detailblendmode" "0"
	"$surfaceprop" "tile"
}
