"VertexLitGeneric"
{
	"$baseTexture" "z-o-m-b-i-e/metro_2033/wood/wood_boards"
	//"//$bumpmap" "z-o-m-b-i-e/metro_2033/wood/wood_boards_norm"
	"$surfaceprop" "wood"
	"$detail" "z-o-m-b-i-e/metro_2033/det/det_wood_01"
	"$detailscale" "6.00"
	"$detailblendfactor" "0.8"
	"$detailblendmode" "0"
}