LightmappedGeneric
{
	"$basetexture" "Tile/tilewall008d"
	"$surfaceprop" "tile"
	"%keywords" "c17downtown"

	"$bumpmap" "tile/tilewall008d_normal"
	"$envmap" "env_cubemap"
	"$normalmapalphaenvmapmask" 1
	"$envmapcontrast" 1
	"$envmapsaturation" 1
}
