"LightmappedGeneric"
{
	"$basetexture" "se_glass/window_uban_apt_glass"
	"$envmap" "env_cubemap"
	"$surfaceprop" "glass"
	"$envmapmask" "se_glass\window_uban_apt_glass_ref"
	"$translucent" 1
	"$multipass" 1
	"$nocull" 1
	//"$crackmaterial" "se_glass\offwndwb_break"
	"$crackmaterial" "glass/glasswindowbreak070b"
}