"VertexlitGeneric"
{
	"$basetexture" "models/props_se/train/passcar/passcar_night_lamp_on"

	"$envmap" "env_cubemap"
	"$envmaptint" "[.7 .7 .7]"
	"$envmapmask" "models/props_se/train/passcar/passcar_night_lamp_env"
	
	"$selfillum" 1
}
