"LightmappedGeneric"
{
	"$basetexture" "snow/passcar/int_wood_4"
	"$surfaceprop" "Wood_Box"
	
	"$envmap" "env_cubemap"
	//"$envmaptint" "[.35 .35 .35]"
	"$envmapmask" "snow/passcar/int_wood_4_env"
	
}
