"VertexlitGeneric"
{
	"$basetexture" "models/props_se/boat/boat_top_1"
	"$envmap" "env_cubemap"
	"$envmapmask" "models/props_se/boat/boat_top_1_env"
	"$envmaptint" "[.8 .8 .8]"
	"$envmapsaturation" ".2"
}
