// envmaptint_fix
"VertexLitGeneric"
{
	"$basetexture" "Models/props_combine/combine_door02"
	"$surfaceprop" "metal"
	"$bumpmap" "models/props_combine/combine_door01_normal"
	"$envmap" "env_cubemap"
	"$normalmapalphaenvmapmask" 1
	"$envmapcontrast" 1
	"$envmapsaturation" 1
	"$envmaptint" "[ .56 .67 .75 ]"


}


