VertexLitGeneric
{
	"$baseTexture" "z-o-m-b-i-e/STALKER/tile/tile_walls_white_02"
	"$bumpmap" "z-o-m-b-i-e/STALKER/tile/tile_walls_white_02_norm"
	"$surfaceprop" "tile"
	"$detail" "z-o-m-b-i-e/STALKER/detail/detail_tile_det2"
	"$detailscale" "6.00"
	"$detailblendfactor" "1.0"
	"$detailblendmode" "0"
}
