LightmappedGeneric
{
	"$basetexture" "highdef/metro2033/concrete/concrete_opalubkaub"
	"$bumpmap" "highdef/metro2033/concrete/concrete_opalubkaub_ssbump"
	"$ssbump" "1"
	"$surfaceprop" "Concrete"
	"%keywords" "metro"
}
