"vertexlitgeneric"
{
	"$basetexture" "metal/metalwall041a"
	"$surfaceprop"  "metal"

	"%keywords" "c17industrial"
	"$envmap" "env_cubemap"
	"$basealphaenvmapmask" 1
	"$envmapcontrast" 1
	"$envmapsaturation" 1
	"$envmaptint" "[ .5 .5 .5]"
}
