VertexLitGeneric
{
	$basetexture models/props_foliage_new/xenflower_uvw2
	$bumpmap bumpmaps/bump_organic01
	$envmap env_cubemap
	$envmaptint "[0.1 0.1 0.2]"
	$phong 1
	$phongfresnelranges "[0.1 0.2 0.1]"
	$phongtint "[0.7 0.6 0.4]"
	$phongexponent 3
	$phongboost 2
}