"VertexLitGeneric"
{
	"$baseTexture" "z-o-m-b-i-e/metro_2033/glass/glass_d06_glass"
	"$bumpmap" "z-o-m-b-i-e/metro_2033/glass/glass_d06_glass_norm"
	"$surfaceprop" "glass"
	"$translucent" "1"
	"$nocull" 1
	"$crackmaterial" "glass/offwndwb_break"
}
