LightmappedGeneric
{
	"$basetexture" "Plaster/plasterwall002b"
	"$surfaceprop" "plaster"
	"$bumpmap" "plaster/plasterwall002b_normal"
	"%keywords" "c17downtown"
	"$envmap" "env_cubemap"
	"$normalmapalphaenvmapmask" 1
	"$envmapcontrast" 1
	"$envmapsaturation" 1
	"$envmaptint" "[ .5 .5 .5]"
}
