"VertexlitGeneric"
{
	"$basetexture" "models/props_se/uaz469/uaz469_cracked_window"
	"$nocull" 1
	"$translucent" 1
	
	
	"$envmap" "env_cubemap"
	"$envmaptint" "[.01 .4 .5]"
	//"$normalmapalphaenvmapmask" "1"
	
}
