LightmappedGeneric
{
	"$baseTexture" "z-o-m-b-i-e/STALKER/wood/wood_table_02"
	"$bumpmap" "z-o-m-b-i-e/STALKER/wood/wood_table_02_norm"
	"$surfaceprop" "wood"
	"$envmap" "env_cubemap"
	"$normalmapalphaenvmapmask" 1
	"$envmapsaturation" 1
	"$envmapcontrast" 1
	"$envmaptint" "[ 0.2 0.2 0.2 ]" //"[ .25 .25 .25 ]"
	"HDR" { "$envmaptint" "[0,05 0,05 0,05]" }
}
