"UnlitGeneric"
{
	"$basetexture" "snow/fizzler_field"
	"$additive" 1
	"Proxies"
	{
		"AnimatedTexture"
		{
			"animatedtexturevar" "$basetexture"
			"animatedtextureframenumvar" "$frame"
			"animatedtextureframerate" 30
		}
	}
}
