"UnlitGeneric"
{
	"$basetexture" "snow/red_lcd_d"
	"Proxies"
	{
		"AnimatedTexture"
		{
			"animatedtexturevar" "$basetexture"
			"animatedtextureframenumvar" "$frame"
			"animatedtextureframerate" 15
		}
	}
}
