"UnlitGeneric"
{
	"$basetexture" "snow/snow_falling_effect"
	"$translucent" 1
	
	"Proxies"
	{
		"TextureScroll"
			{
				"texturescrollvar" "$baseTextureTransform"
				"texturescrollrate" "2"
				"texturescrollangle" "-75.0"
			}
		}
	}
}
