VertexLitGeneric
{
	"$baseTexture" "z-o-m-b-i-e/STALKER/mtl/mtl_truba_ql02_a"
	"$bumpmap" "z-o-m-b-i-e/STALKER/mtl/mtl_truba_ql02_a_norm"
	"$surfaceprop" "metal"
	"$detail" "z-o-m-b-i-e/STALKER/detail/detail_metall_det2_v2"
	"$detailscale" "6.00"
	"$detailblendfactor" "1.0"
	"$detailblendmode" "0"
}
