LightmappedGeneric
{
	"$baseTexture" "z-o-m-b-i-e/STALKER/crete/crete_beton_01d"
	"$bumpmap" "z-o-m-b-i-e/STALKER/crete/crete_beton_01d_norm"
	"$surfaceprop" "concrete"
	"$detail" "z-o-m-b-i-e/STALKER/detail/detail_beton_det4"
	"$detailscale" "6.00"
	"$detailblendfactor" "1.0"
	"$detailblendmode" "0"
}
