LightmappedGeneric
{
	"$baseTexture" "z-o-m-b-i-e/STALKER/crete/crete_stena_ch_15"
	"$bumpmap" "z-o-m-b-i-e/STALKER/crete/crete_stena_ch_15_norm"
	"$surfaceprop" "concrete"
	"$detail" "z-o-m-b-i-e/STALKER/detail/detail_beton_det4_u2"
	"$detailscale" "6.00"
	"$detailblendfactor" "1.0"
	"$detailblendmode" "0"
}
