LightmappedGeneric
{
	"$baseTexture" "z-o-m-b-i-e/STALKER/crete/crete_pol_brown_1"
	"$bumpmap" "z-o-m-b-i-e/STALKER/crete/crete_pol_brown_1_norm"
	"$surfaceprop" "concrete"
	"$detail" "z-o-m-b-i-e/STALKER/detail/detail_beton_det4"
	"$detailscale" "6.00"
	"$detailblendfactor" "1.0"
	"$detailblendmode" "0"
}
	
	
